% Model:              H_dipoleBare.mph
% Version:            COMSOL 5.5.0.359
% Date:               Feb 7 2023, 08:49
% Dimension:          3
% Nodes:              287
% Expressions:        3
% Description:        Electric field, x component, Electric field, y component, Electric field, z component
% Length unit:        m
% x                       y                        z                        ground.Ex (V/m)          ground.Ey (V/m)          ground.Ez (V/m)
0                         0                        -0.15                    0.24059046626528505      -1.2094931492703451E-4   0.0012676864832787127
0                         0                        -0.149                   0.24853303443605046      -1.201265983730819E-4    0.0012905114237589804
0                         0                        -0.148                   0.25677268305421325      -1.1920834936151106E-4   0.0013135415534495966
0                         0                        -0.147                   0.26532134088271475      -1.1819113117752383E-4   0.001336763720289201
0                         0                        -0.146                   0.27419143225465625      -1.1707146399488749E-4   0.001360163929447527
0                         0                        -0.145                   0.2833958978634484       -1.1584582861538448E-4   0.0013837273366344438
0                         0                        -0.144                   0.292948216429705        -1.145106704419259E-4    0.0014074382436644467
0                         0                        -0.143                   0.3028624272833176       -1.130624036781401E-4    0.0014312800963814515
0                         0                        -0.142                   0.3131531539010178       -1.1149741573687755E-4   0.0014552354850512657
0                         0                        -0.141                   0.32383562844171876      -1.0981207183996186E-4   0.0014792861472875465
0                         0                        -0.14                    0.33492571732399745      -1.0800271979142725E-4   0.0015034129735898016
0                         0                        -0.139                   0.34643994789228744      -1.0606569489921003E-4   0.0015275960155529365
0                         0                        -0.138                   0.3583955362206344       -1.0399732501535294E-4   0.0015518144967661476
0                         0                        -0.137                   0.3708104161053171       -1.0179393566660255E-4   0.001576046826449684
0                         0                        -0.136                   0.38370326930015747      -9.945185524097219E-5    0.001600270615797001
0                         0                        -0.135                   0.39709355705103416      -9.696742019011176E-5    0.0016244626970343054
0                         0                        -0.134                   0.41100155298890023      -9.433698020664544E-5    0.0016485991451378953
0                         0                        -0.133                   0.4254483774435471       -9.155690333369215E-5    0.001672655302169184
0                         0                        -0.132                   0.4404560332434176       -8.862358095714992E-5    0.0016966058041412435
0                         0                        -0.131                   0.45604744306997447      -8.55334326303192E-5     0.0017204246103307702
0                         0                        -0.13                    0.47224648843846656      -8.22829106776786E-5     0.0017440850349261482
0                         0                        -0.128889                0.490986469492872        -7.847924931075542E-5    0.001770152824626496
0                         0                        -0.127778                0.5105428360101142       -7.44685488673763E-5     0.0017959531504414036
0                         0                        -0.126667                0.5309528826865071       -7.024612366616015E-5    0.0018214469372738792
0                         0                        -0.125556                0.5522556459530101       -6.58073619464912E-5     0.0018465943654767097
0                         0                        -0.124444                0.5745124346943321       -6.114343523691904E-5    0.001871377041624163
0                         0                        -0.123333                0.5977260240029244       -5.625827649334211E-5    0.0018957092672015861
0                         0                        -0.122222                0.6219607792056131       -5.114342313814954E-5    0.0019195718893793498
0                         0                        -0.121111                0.6472635752076654       -4.579459111718476E-5    0.0019429228416116967
0                         0                        -0.12                    0.6736834855441023       -4.020758039792113E-5    0.0019657196904561847
0                         0                        -0.118889                0.7012718877439547       -3.437827326185916E-5    0.0019879197175620388
0                         0                        -0.117778                0.7300825739221138       -2.8302631293490588E-5   0.002009480003664266
0                         0                        -0.116667                0.760171866859646        -2.1976691107712665E-5   0.002030357514759551
0                         0                        -0.115556                0.7915987418434622       -1.539655889937902E-5    0.002050509190803202
0                         0                        -0.114444                0.8244551506280108       -8.552131648121436E-6    0.002069909124540437
0                         0                        -0.113333                0.8587467190925355       -1.4519417681907454E-6   0.0020884795588522256
0                         0                        -0.112222                0.894570083619799        5.913775996214954E-6     0.0021061957209535676
0                         0                        -0.111111                0.9319961760608001       1.3548708560011391E-5    0.0021230154078637226
0                         0                        -0.11                    0.9710992866255534       2.1456510530634687E-5    0.0021388968992908323
0                         0                        -0.108889                1.011957226466645        2.964081095470708E-5     0.0021537990820342714
0                         0                        -0.107778                1.0546514981440493       3.8105218397636864E-5    0.0021676815869775892
0                         0                        -0.106667                1.0992674742910042       4.68533234704166E-5      0.002180504941770349
0                         0                        -0.105556                1.145894584798268        5.588869771764801E-5     0.002192230743004814
0                         0                        -0.104444                1.1946713532060156       6.522341404360116E-5     0.0022028308633469367
0                         0                        -0.103333                1.2456082687941288       7.48441948434167E-5      0.002212250564051669
0                         0                        -0.102222                1.2988510527552097       8.476275366323116E-5     0.00222046599933853
0                         0                        -0.101111                1.354507421381541        9.49824514066E-5         0.002227445331108323
0                         0                        -0.1                     1.4126902225664286       1.0550651541819597E-4    0.002233159134035847
0                         0                        -0.098889                1.4735142980549343       1.1636346274624537E-4    0.002241176302451074
0                         0                        -0.097778                1.537117435261803        1.2512494695003304E-4    0.0022378043901542938
0                         0                        -0.096667                1.603617531442769        1.3437914486154334E-4    0.002234175363139265
0                         0                        -0.095556                1.673150520962335        1.441442795396819E-4     0.002230286235877855
0                         0                        -0.094444                1.745925732749759        1.54448282070431E-4      0.002226123848451939
0                         0                        -0.093333                1.8219615776245677       1.652910741282189E-4     0.0022216791293894174
0                         0                        -0.092222                1.9014783299477462       1.766999247285947E-4     0.002216923715000486
0                         0                        -0.091111                1.9846396783634825       1.8869262683948035E-4    0.002211823751003211
0                         0                        -0.09                    2.071617051627871        2.0128622650856035E-4    0.0022063354166638894
0                         0                        -0.088889                2.1625899594895066       2.1449668352845758E-4    0.0022004041675665114
0                         0                        -0.087778                2.2577463422314086       2.283384879264161E-4     0.0021939641230413
0                         0                        -0.086667                2.357282927846719        2.4282423262323577E-4    0.0021869376520977047
0                         0                        -0.085556                2.461405595547302        2.579641441834597E-4     0.0021792352198132265
0                         0                        -0.084444                2.5704300152790203       2.7378009788064234E-4    0.002170747548793381
0                         0                        -0.083333                2.6843855625974578       2.902475904325297E-4     0.0021613774122706004
0                         0                        -0.082222                2.803603647207976        3.073805129037259E-4     0.0021509950691058
0                         0                        -0.081111                2.9283304600185125       3.2517429447192006E-4    0.002139469647210232
0                         0                        -0.08                    3.0588231854456085       3.436192733537388E-4     0.002126664217188664
0                         0                        -0.078889                3.195350354122018        3.6270018120515557E-4    0.002112438902788266
0                         0                        -0.077778                3.3381921807959474       3.823956978140086E-4     0.0020966548479574108
0                         0                        -0.076667                3.487640881852559        4.026781164734039E-4     0.00207917911456611
0                         0                        -0.075556                3.6440009659815837       4.235131694981381E-4     0.0020598905629124536
0                         0                        -0.074444                3.807740089064928        4.448795038773101E-4     0.0020386667602804113
0                         0                        -0.073333                3.9788938287624247       4.666916853807365E-4     0.0020154699108555366
0                         0                        -0.072222                4.157948884017542        4.889162474036174E-4     0.0019902411764804217
0                         0                        -0.071111                4.345261026535578        5.114963995893618E-4     0.001962984620034373
0                         0                        -0.07                    4.541199065147604        5.343727109123828E-4     0.0019337588068865214
0                         0                        -0.069                   4.725252490423066        5.551672714507183E-4     0.0019058690419403402
0                         0                        -0.068                   4.91689068280354         5.761115079330817E-4     0.0018766225431239762
0                         0                        -0.067                   5.116409115151431        5.971675740280846E-4     0.0018462121735847363
0                         0                        -0.066                   5.324111215723403        6.18304216069808E-4      0.0018148868170292448
0                         0                        -0.065                   5.540308020753255        6.394997716488299E-4     0.001782952720475819
0                         0                        -0.064                   5.765317723994184        6.607454747398003E-4     0.0017507721487079186
0                         0                        -0.063                   5.999465108602973        6.820489287819795E-4     0.0017187584511150814
0                         0                        -0.062                   6.243080844912712        7.034375183491703E-4     0.0016873665002766266
0                         0                        -0.061                   6.4965006355276795       7.249614074562385E-4     0.0016570773279897667
0                         0                        -0.06                    6.760064186723798        7.466956098217195E-4     0.0016283756703570325
0                         0                        -0.059                   7.034113982277987        7.68740404774898E-4      0.0016017190568222636
0                         0                        -0.058                   7.318993832492221        7.912191017839937E-4     0.0015774970611882782
0                         0                        -0.057                   7.615047167219373        8.142718162405319E-4     0.0015559794047503277
0                         0                        -0.056                   7.922615037020614        8.38043498592296E-4      0.0015372517984127967
0                         0                        -0.055                   8.242033781057852        8.626639489877561E-4     0.0015211387748877573
0                         0                        -0.054                   8.573632313814798        8.882169433843921E-4     0.0015071133428535607
0                         0                        -0.053                   8.917728975118049        9.14694892938505E-4      0.0014941941465535765
0                         0                        -0.052                   9.274627879093897        9.419346624920458E-4     0.0014808319921503664
0                         0                        -0.051                   9.644614687599569        9.695293034896919E-4     0.0014647891592879199
0                         0                        -0.05                    10.027951722362749       9.96709546234157E-4      0.0014430168934033583
0                         0                        -0.049                   10.424872317758618       0.00102218800146988      0.0014115388899045966
0                         0                        -0.048                   10.835559670601596       0.0010491231595356858    0.001398210615071985
0                         0                        -0.047                   11.260366882737369       0.001099439635888995     0.0015629075023830697
0                         0                        -0.046                   11.699199836815238       0.001141652729448564     0.0017143504427647293
0                         0                        -0.045                   12.152137936266513       0.0011759540652991236    0.0018482588628615307
0                         0                        -0.044                   12.619203494678864       0.001202742545645015     0.0019604872903404708
0                         0                        -0.043                   13.100353660980998       0.001222631040090183     0.0020472409559009266
0                         0                        -0.042                   13.595471853385579       0.0012364456870207173    0.0021053269586472547
0                         0                        -0.041                   14.104358799266977       0.001245216055611141     0.0021324336969387302
0                         0                        -0.04                    14.626723319579435       0.0012501543413680656    0.002127425609087491
0                         0                        -0.039                   15.162173043140138       0.0012526217887829372    0.0020906335165978285
0                         0                        -0.038                   15.710205286364614       0.0012540807153386645    0.002024113427772598
0                         0                        -0.037                   16.270198385074057       0.0012560309358855201    0.0019318393168248332
0                         0                        -0.036                   16.84140381293092        0.0012599301567303746    0.0018197893556586367
0                         0                        -0.035                   17.422939461042482       0.001267099133316612     0.0016958820149501723
0                         0                        -0.034                   18.01378447976909        0.0012786141583872208    0.001569720420136745
0                         0                        -0.033                   18.612776091168016       0.0012951918122906837    0.0014521125530853867
0                         0                        -0.032                   19.218608763941344       0.0013170738108426068    0.001354353271037636
0                         0                        -0.031                   19.829836099196434       0.0013439230220480929    0.0012872827214497964
0                         0                        -0.03                    20.444875704597077       0.0013747448824067005    0.0012601739452515505
0                         0                        -0.029                   21.062017240064705       0.0014078508864373285    0.0012795471888865286
0                         0                        -0.028                   21.67943370739365        0.001440881700636342     0.0013480535284768717
0                         0                        -0.027                   22.295195939318944       0.0014709058032568757    0.0014636065710373295
0                         0                        -0.026                   22.907290132165848       0.001494604482775403     0.0016189566734273533
0                         0                        -0.025                   23.513638169810037       0.001508544995998489     0.001801885434308325
0                         0                        -0.024                   24.112120409628897       0.0015095308106848476    0.0019961400867085193
0                         0                        -0.023                   24.700600539746997       0.0014950022157449137    0.002183125381878502
0                         0                        -0.022                   25.27695205865182        0.0014634443657721742    0.0023442323546026614
0                         0                        -0.021                   25.83908585420521        0.0014147462358847958    0.0024635290096378312
0                         0                        -0.02                    26.384978249867164       0.0013504467681806354    0.002530398851494548
0                         0                        -0.019                   26.912698730921417       0.0012738072452830144    0.002541627252128
0                         0                        -0.018                   27.4204363702753         0.0011896639622101142    0.0025024388525115536
0                         0                        -0.017                   27.90652377449413        0.0011040427023973655    0.0024261046112413996
0                         0                        -0.016                   28.369457223159298       0.0010235536070661126    0.002331964801075958
0                         0                        -0.015                   28.80791165019244        9.546261133936661E-4     0.002242025277147997
0                         0                        -0.014                   29.220749282063043       9.026809577423606E-4     0.0021766220330893572
0                         0                        -0.013                   29.60702114410956        8.713614157625157E-4     0.0021499386720829385
0                         0                        -0.012                   29.96596126155556        8.619519251529748E-4     0.0021663266347772513
0                         0                        -0.011                   30.29697414325564        8.730951568308928E-4     0.002218360362565501
0                         0                        -0.01                    30.599616914298437       9.008790968641663E-4     0.0022873352611869936
0                         0                        -0.009                   30.873578096692338       9.393091870250891E-4     0.0023465057167974673
0                         0                        -0.008                   31.118655370640976       9.811164064809814E-4     0.002366827035621962
0                         0                        -0.007                   31.334734578005794       0.0010187918832736745    0.002324404525713246
0                         0                        -0.006                   31.52177173588526        0.0010456935724547471    0.002208373805981642
0                         0                        -0.005                   31.679778994401364       0.0010570496391030318    0.0020276392380766672
0                         0                        -0.004                   31.80881447119907        0.0010506911213235721    0.0018148542836661612
0                         0                        -0.003                   31.908974951165966       0.00102738279209098      0.0016262682078944032
0                         0                        -0.002                   31.98038977784944        9.906805063007972E-4     0.001536568775045953
0                         0                        -0.001                   32.02321404976058        9.463164568575336E-4     0.0016285553242723697
0                         0                        0                        32.03742608322446        9.673494714105557E-4     0.0015139108031467438
0                         0                        0.001                    32.02298086200499        9.405412177209277E-4     0.0013442864996779484
0                         0                        0.002                    31.98006390162537        9.679806542665648E-4     0.0012051012981310304
0                         0                        0.003                    31.908550864388946       0.0010149097607101316    0.0010834142233741156
0                         0                        0.004                    31.80832261262151        0.001061399922046076     9.692514570729949E-4
0                         0                        0.005                    31.679267138507694       0.0010986101586807871    8.554863513081969E-4
0                         0                        0.006                    31.52128598784107        0.0011249886089847692    7.375853779674549E-4
0                         0                        0.007                    31.33430508482202        0.0011429066206083138    6.132635646755383E-4
0                         0                        0.008                    31.118289464085212       0.001156033564748693     4.8208681484729343E-4
0                         0                        0.009                    30.873261123135695       0.001167577703826226     3.4504824558140995E-4
0                         0                        0.01                     30.599319010514765       0.0011793627704956115    2.041359570793301E-4
0                         0                        0.011                    30.29666004356085        0.0011915986996918586    6.190480773421436E-5
0                         0                        0.012                    29.965599989089824       0.0012031439785110953    -7.893327263267316E-5
0                         0                        0.013                    29.606593032337297       0.001212042585065045     -2.158787899648948E-4
0                         0                        0.014                    29.220248902274605       0.0012161404026853687    -3.469448408274442E-4
0                         0                        0.015                    28.80734651665265        0.0012136313354291633    -4.7085657518904783E-4
0                         0                        0.016                    28.368843259462658       0.0012034390903539072    -5.871259757198287E-4
0                         0                        0.017                    27.905879205447096       0.0011853956607849134    -6.959952214955351E-4
0                         0                        0.018                    27.41977585434475        0.0011602239060738307    -7.982651854341397E-4
0                         0                        0.019                    26.912029219430053       0.001129364591756818     -8.950480873985769E-4
0                         0                        0.02                     26.384297412897393       0.0010947062684634103    -9.874978395242387E-4
0                         0                        0.021                    25.838383163053205       0.001058280420088837     -0.0010765734523845716
0                         0                        0.022                    25.276211961884524       0.001021977196816232     -0.001162879432486632
0                         0                        0.023                    24.69980675474089        9.873225558343513E-4     -0.0012466059854960576
0                         0                        0.024                    24.11126022976289        9.553397807234836E-4     -0.0013275673279965101
0                         0                        0.025                    23.512705833828942       9.265007442639649E-4     -0.0014053151884620488
0                         0                        0.026                    22.906288633275743       9.007576550229216E-4     -0.0014792916003862414
0                         0                        0.027                    22.294137058843084       8.776360173494493E-4     -0.0015489823437401413
0                         0                        0.028                    21.67833643909013        8.563646544218449E-4     -0.0016140388163952725
0                         0                        0.029                    21.060905052696715       8.360184657556068E-4     -0.0016743484880406695
0                         0                        0.03                     20.443773236394197       8.156530339016605E-4     -0.0017300483483555385
0                         0                        0.031                    19.8287658891097         7.94415863239268E-4      -0.0017814882866474969
0                         0                        0.032                    19.21758852843633        7.71625525423314E-4      -0.001829159772420869
0                         0                        0.033                    18.611816892944738       7.468161287300466E-4     -0.0018736087131554328
0                         0                        0.034                    18.012889949249505       7.197495119682616E-4     -0.001915350429542835
0                         0                        0.035                    17.422106058667243       6.904009744806063E-4     -0.001954800623662094
0                         0                        0.036                    16.840621984445153       6.589261307923568E-4     -0.001992230624219835
0                         0                        0.037                    16.269454374587536       6.256168217659373E-4     -0.0020277495271219855
0                         0                        0.038                    15.709483333703885       5.908532759387897E-4     -0.0020613111485404227
0                         0                        0.039                    15.161457695858411       5.550582994212315E-4     -0.0020927405172667755
0                         0                        0.04                     14.626001624781267       5.186575582646607E-4     -0.002121773056765185
0                         0                        0.041                    14.10362219383297        4.8204830843637594E-4    -0.0021480994352236545
0                         0                        0.042                    13.594717632011575       4.455774344792607E-4     -0.002171409912324394
0                         0                        0.043                    13.099585960773583       4.0952849421270303E-4    -0.0021914334600829245
0                         0                        0.044                    12.618433786783736       3.741166701813018E-4     -0.0022079686006544422
0                         0                        0.045                    12.151385055763607       3.3949007726963125E-4    -0.0022209044965096243
0                         0                        0.046                    11.698489610761342       3.057357139757567E-4     -0.0022302321640967626
0                         0                        0.047                    11.259731433295396       2.7288839957627375E-4    -0.002236046672157677
0                         0                        0.048                    10.835096293813276       2.561934801146304E-4     -0.0022636953052852515
0                         0                        0.049                    10.424415887971197       2.3855915879267275E-4    -0.002276783046095243
0                         0                        0.05                     10.02751481168356        2.2037953332931792E-4    -0.0022878537036203905
0                         0                        0.051                    9.644195016791267        2.0272275114674443E-4    -0.002298590301353265
0                         0                        0.052                    9.274223421036142        1.862170270873209E-4     -0.00230997210242867
0                         0                        0.053                    8.917338184500755        1.7117571780655982E-4    -0.00232247407397268
0                         0                        0.054                    8.573254195601761        1.5769494606665546E-4    -0.002336225454655061
0                         0                        0.055                    8.24166785779536         1.4572835147830254E-4    -0.0023511325175018527
0                         0                        0.056                    7.922261258932734        1.3514310874651603E-4    -0.0023669708998994565
0                         0                        0.057                    7.614705796166942        1.25760861334534E-4      -0.0023834527573984854
0                         0                        0.058                    7.318665320846456        1.173867120298766E-4     -0.002400273623525573
0                         0                        0.059                    7.033798860131438        1.0982892274946643E-4    -0.0024171433322364155
0                         0                        0.06                     6.759762965207823        1.0291152300767603E-4    -0.0024338047649352657
0                         0                        0.061111                 6.467591489550159        9.579221374167446E-5     -0.00245181228206226
0                         0                        0.062222                 6.18789429963036         8.910409125711949E-5     -0.002469071949829038
0                         0                        0.063333                 5.920206135283289        8.271732397319154E-5     -0.0024854243079055482
0                         0                        0.064444                 5.6640681740334555       7.654120463818082E-5     -0.0025007706881492453
0                         0                        0.065556                 5.418814022506056        7.051457750001378E-5     -0.0025150759213208307
0                         0                        0.066667                 5.184443238085628        6.462216136121635E-5     -0.0025283072383921468
0                         0                        0.067778                 4.960299698151939        5.88564952794246E-5      -0.002540501040528831
0                         0                        0.068889                 4.745964177066776        5.323425581754693E-5     -0.002551700926807232
0                         0                        0.07                     4.541029505732571        4.778571288033273E-5     -0.002561962760060821
0                         0                        0.071111                 4.345101033752029        4.255022693649968E-5     -0.0025713478074473883
0                         0                        0.072222                 4.157796939107258        3.7572379778028075E-5    -0.0025799173051139768
0                         0                        0.073333                 3.9787484077748756       3.289875457418434E-5     -0.0025877283586797084
0                         0                        0.074444                 3.807599703013301        2.8575341385561615E-5    -0.002594831036744738
0                         0                        0.075556                 3.643864198628008        2.4642172209043967E-5    -0.0026012719905030846
0                         0                        0.076667                 3.487506410335704        2.1145616019402347E-5    -0.002607070850666471
0                         0                        0.077778                 3.338058810075752        1.8116049317784544E-5    -0.0026122545863478397
0                         0                        0.078889                 3.1952170317658917       1.5581728952607232E-5    -0.0026168339497973925
0                         0                        0.08                     3.058689015131544        1.356471297264683E-5     -0.00262081013056481
0                         0                        0.081111                 2.928194710283365        1.2080756541243964E-5    -0.0026241755991456284
0                         0                        0.082222                 2.803465755922704        1.1139408665483685E-5    -0.00262691513147284
0                         0                        0.083333                 2.684245137689282        1.0744262473910693E-5    -0.0026290069369587776
0                         0                        0.084444                 2.5702868322311523       1.0893318489108017E-5    -0.002630423829248274
0                         0                        0.085556                 2.4612595896776415       1.1580282913092876E-5    -0.0026311347042952127
0                         0                        0.086667                 2.3571341946088857       1.2792101194286642E-5    -0.002631103740952101
0                         0                        0.087778                 2.2575951203300253       1.4513200743360155E-5    -0.0026302953496351034
0                         0                        0.088889                 2.1624366229374914       1.6724022174979813E-5    -0.002628671931174109
0                         0                        0.09                     2.071462098321593        1.940192002494734E-5     -0.00262619573605527
0                         0                        0.091111                 1.984483718041081        2.2521669587216575E-5    -0.0026228296671629847
0                         0                        0.092222                 1.9013220718169912       2.6055949399056422E-5    -0.002618537986909586
0                         0                        0.093333                 1.8218058179041154       2.9975793785136373E-5    -0.002613286930171488
0                         0                        0.094444                 1.7457713423278562       3.4251011864216974E-5    -0.0026070452264065347
0                         0                        0.095556                 1.6729984358498626       3.885484764662439E-5     -0.0025997775335919737
0                         0                        0.096667                 1.6034687345138583       4.374746974619703E-5     -0.00259147185195574
0                         0                        0.097778                 1.5369729508891747       4.8901165969478244E-5    -0.002582100624650252
0                         0                        0.098889                 1.473375179957098        5.4284317539926574E-5    -0.002571646147332407
0                         0                        0.1                      1.4125654625678847       5.708643705362726E-5     -0.0025591342902325787
0                         0                        0.101111                 1.354384803138465        5.984970942646273E-5     -0.0025455489914305574
0                         0                        0.102222                 1.2987306378956127       6.263973610584617E-5     -0.002530944471925034
0                         0                        0.103333                 1.245490097186577        6.544504427594133E-5     -0.002515337849103294
0                         0                        0.104444                 1.1945554502998534       6.825516078381999E-5     -0.002498749136112144
0                         0                        0.105556                 1.1457809691541592       7.106301032261397E-5     -0.002481184705388495
0                         0                        0.106667                 1.099156155373822        7.385471888107786E-5     -0.002462701062058703
0                         0                        0.107778                 1.0545424852771335       7.662469440394837E-5     -0.0024433097938809656
0                         0                        0.108889                 1.0118505286357828       7.936544614689511E-5     -0.0024230396959455947
0                         0                        0.11                     0.9709949136128866       8.207005901750275E-5     -0.0024019212067457607
0                         0                        0.111111                 0.9318941390295074       8.47321491666414E-5      -0.0023799862281423945
0                         0                        0.112222                 0.8944703952888726       8.734582744436559E-5     -0.0023572679587217094
0                         0                        0.113333                 0.8586493936142755       8.990566906869057E-5     -0.002333800737702063
0                         0                        0.114444                 0.8243602032586217       9.240668815399533E-5     -0.002309619897266524
0                         0                        0.115556                 0.7915061906407325       9.484648024239706E-5     -0.0022847389527917983
0                         0                        0.116667                 0.7600817256683006       9.721648387477078E-5     -0.002259239582803829
0                         0                        0.117778                 0.729994858253541        9.951513383257837E-5     -0.002233137198356161
0                         0                        0.118889                 0.7011866120504496       1.0173900807426695E-4    -0.0022064697443974213
0                         0                        0.12                     0.673600662664736        1.0388503694473694E-4    -0.002179275500680089
0                         0                        0.121111                 0.6471832158560983       1.0595048992394218E-4    -0.002151592961589621
0                         0                        0.122222                 0.6218828915121496       1.0793296290406706E-4    -0.0021234607192999744
0                         0                        0.123333                 0.5976506131185382       1.0983036580551608E-4    -0.0020949173503277407
0                         0                        0.124444                 0.574439502460766        1.1164091040297142E-4    -0.002066001305675247
0                         0                        0.125556                 0.5521851928677705       1.1336460820894623E-4    -0.0020367243374601607
0                         0                        0.126667                 0.5308849010173604       1.149971376431802E-4     -0.0020071770162633507
0                         0                        0.127778                 0.5104773163552164       1.1653913425260787E-4    -0.0019773706130769564
0                         0                        0.128889                 0.4909233984776634       1.1798989746462929E-4    -0.0019473420582292178
0                         0                        0.13                     0.4721858486986574       1.1934896876046597E-4    -0.0019171276700576945
0                         0                        0.131                    0.4559889735760255       1.2049365382496569E-4    -0.0018898025540325936
0                         0                        0.132                    0.44039971388802096      1.2156385108828827E-4    -0.0018623811989337824
0                         0                        0.133                    0.4253941853607278       1.2255968230277803E-4    -0.0018348885007691829
0                         0                        0.134                    0.41094946264838494      1.234813988691963E-4     -0.0018073487670390298
0                         0                        0.135                    0.397043540369857        1.2432937507596276E-4    -0.0017797856805791268
0                         0                        0.136                    0.3836552957686806       1.2510410142503592E-4    -0.0017522222666243037
0                         0                        0.137                    0.37076445292499666      1.258061780551739E-4     -0.0017246808631046218
0                         0                        0.138                    0.3583515484510216       1.2643630827523233E-4    -0.001697183094197141
0                         0                        0.139                    0.34639789860493125      1.269952922148404E-4     -0.0016697498471031635
0                         0                        0.14                     0.33488556776110817      1.2748402060386993E-4    -0.001642401252047454
0                         0                        0.141                    0.32379733817764567      1.2790346868381958E-4    -0.0016151566654180605
0                         0                        0.142                    0.31311668100478685      1.2825469026249425E-4    -0.0015880346560166458
0                         0                        0.143                    0.3028277284806685       1.2853881191419309E-4    -0.0015610529943277385
0                         0                        0.144                    0.29291524726325907      1.287570273320951E-4     -0.0015342286447113107
0                         0                        0.145                    0.28336461284981135      1.2891059183290504E-4    -0.001507577760432699
0                         0                        0.146                    0.274161785037437        1.2900081702574978E-4    -0.0014811156813905324
0                         0                        0.147                    0.2652932843806027       1.2902906563509037E-4    -0.0014548569344525752
0                         0                        0.148                    0.25674616960340335      1.289967464915831E-4     -0.001428815236241332
0                         0                        0.149                    0.24850801592645083      1.2890530968433234E-4    -0.0014030034982409623
