#GNUPLOT script file

plot "../wdir/survey_aegis.txt" u 4:2:5 w labels rotate by 90 offset char 0,5  notitle, "../wdir/survey_aegis.txt" u 4:2 w lp lc 1,  "survey_lne02.tfs" u 8:6 w lp, "survey_lne02.tfs" u 8:6:1 w labels rotate by 90 offset 0,5 textcolor "red"
pause 10000
