1.5 0 0
3.5 0 0
5.5 0 0
7.5 0 0
9.5 0 0
11.5 0 0
13.5 0 0
15.5 0 0
17.5 0 0
19.5 0 0
21.5 0 0
23.5 0 0
25.5 0 0
27.5 0 0
29.5 0 0
31.5 0 0
33.5 0 0
35.5 0 0
37.5 0 0
39.5 0 0
41.5 0 0
43.5 0 0
45.5 0 0
47.5 0 0
49.5 0 0
51.5 0 0
53.5 0 0
55.5 0 0
57.5 0 0
59.5 0 0
61.5 0 0
63.5 0 0
65.5 0 0
67.5 0 0
69.5 0 0
71.5 0 0
73.5 0 0
75.5 0 0
77.5 0 0
79.5 0 0
81.5 0 0
83.5 0 0
85.5 0 0
87.5 0 0
89.5 0 0
91.5 0 0
93.5 0 0
95.5 0 0
97.5 0 0
99.5 0 0
101.5 0 0
103.5 0 0
105.5 0 0
107.5 0 0
109.5 0 0
111.5 0 0
113.5 0 0
115.5 0 0
117.5 0 0
119.5 0 0
121.5 0 0
123.5 0 0
125.5 0 0
127.5 0 0
129.5 0 0
131.5 0 0
133.5 0 0
135.5 0 0
137.5 0 0
139.5 0 0
141.5 0 0
143.5 0 0
145.5 0 0
147.5 0 0
149.5 0 0
151.5 0 0
153.5 0 0
155.5 0 0
157.5 0 0
159.5 0 0
