% Model:              Asacusa_quad_first_short.mph
% Version:            COMSOL 5.5.0.359
% Date:               Jan 9 2024, 10:47
% Dimension:          3
% Nodes:              399
% Expressions:        3
% Description:        Electric field, x component, Electric field, y component, Electric field, z component
% Length unit:        m
% x                       y                        z                        esbe.Ex (V/m)            esbe.Ey (V/m)            esbe.Ez (V/m)
0.01                      0.01                     -0.2                     0.008931526366193853     -0.008998679484774945    -3.393325950177379E-5
0.01                      0.01                     -0.199                   0.009336586622180995     -0.009403692456715643    -3.311739899111818E-5
0.01                      0.01                     -0.198                   0.009760231356057879     -0.009827297770026545    -3.230139304912378E-5
0.01                      0.01                     -0.197                   0.010203219154067028     -0.010270254987825932    -3.148373613830782E-5
0.01                      0.01                     -0.196                   0.010666347996956095     -0.010733363051122841    -3.066282352218798E-5
0.01                      0.01                     -0.195                   0.011150457395301988     -0.011217462410953307    -2.9836951806777373E-5
0.01                      0.01                     -0.194                   0.011656430585852124     -0.01172343722211387     -2.9004319990916586E-5
0.01                      0.01                     -0.193                   0.012185196789008763     -0.012252217598665571    -2.81630310877913E-5
0.01                      0.01                     -0.192                   0.012737733528021957     -0.012804781931813556    -2.7311094402205152E-5
0.01                      0.01                     -0.191                   0.013315069010961939     -0.013382159271262637    -2.6446428547092788E-5
0.01                      0.01                     -0.19                    0.013918284577120056     -0.01398543177171828     -2.556686529190885E-5
0.01                      0.01                     -0.189                   0.014548517210143865     -0.014615737206843945    -2.4670154346225002E-5
0.01                      0.01                     -0.188                   0.015206962120918401     -0.015274271553685836    -2.3753969181872887E-5
0.01                      0.01                     -0.187                   0.01589487540399559      -0.015962291651348097    -2.2815914011221612E-5
0.01                      0.01                     -0.186                   0.016613576772216008     -0.01668111793853503     -2.1853532037146336E-5
0.01                      0.01                     -0.185                   0.017364452375066116     -0.01743213727546083     -2.086431510226578E-5
0.01                      0.01                     -0.184                   0.018148957707272984     -0.018216805856567087    -1.9845714855540645E-5
0.01                      0.01                     -0.183                   0.01896862061513063      -0.019036652221484568    -1.879515557745337E-5
0.01                      0.01                     -0.182                   0.019825044409104854     -0.019893280372691544    -1.7710048773670857E-5
0.01                      0.01                     -0.181                   0.02071991109232564      -0.020788373009395025    -1.6587809676346242E-5
0.01                      0.01                     -0.18                    0.021654984715687827     -0.021723694888244795    -1.542587576029361E-5
0.01                      0.01                     -0.179                   0.022632114871402056     -0.02270109632261207     -1.4221727386851406E-5
0.01                      0.01                     -0.178                   0.023653240337966275     -0.023722516833279923    -1.2972910665240574E-5
0.01                      0.01                     -0.177                   0.024720392890673036     -0.024789988964536033    -1.167706261471287E-5
0.01                      0.01                     -0.176                   0.025835701292911267     -0.025905642280789558    -1.033193867237787E-5
0.01                      0.01                     -0.175                   0.0270013954846383       -0.027071707559963833    -8.935442578242726E-6
0.01                      0.01                     -0.174                   0.028219810985527168     -0.02829052120102956     -7.4856586210466985E-6
0.01                      0.01                     -0.173                   0.029493393531373212     -0.029564529864142552    -5.980886193858036E-6
0.01                      0.01                     -0.172                   0.030824703963424408     -0.030896295362930013    -4.41967655389464E-6
0.01                      0.01                     -0.171                   0.032216423391324876     -0.03228849982950492     -2.8008716237736594E-6
0.01                      0.01                     -0.17                    0.033671358651364024     -0.033743951173811265    -1.123644599838739E-6
0.01                      0.01                     -0.169                   0.03519244808268253      -0.035265588859881535    6.124579461029816E-7
0.01                      0.01                     -0.168                   0.036782767645008874     -0.03685649002252597     2.4074728769074777E-6
0.01                      0.01                     -0.167                   0.03844553740236976      -0.03851987594888334     4.2609767164978175E-6
0.01                      0.01                     -0.166                   0.04018412839805192      -0.040259118950121       6.172041931409768E-6
0.01                      0.01                     -0.165                   0.042002069946885025     -0.04207774964941146     8.139194011365266E-6
0.01                      0.01                     -0.164                   0.0439030573716511       -0.04397946471308419     1.0160370277161631E-5
0.01                      0.01                     -0.163                   0.04589096021114245      -0.04596813505262873     1.223288147699975E-5
0.01                      0.01                     -0.162                   0.04796983092804776      -0.048047814525928156    1.4353377437545102E-5
0.01                      0.01                     -0.161                   0.050143914145485705     -0.05022274916681063     1.6517818234472762E-5
0.01                      0.01                     -0.16                    0.052417656441602276     -0.05249738697267643     1.8721452570964726E-5
0.01                      0.01                     -0.159                   0.05479571673222827      -0.05487638828059689     2.09588053015692E-5
0.01                      0.01                     -0.158                   0.05728297727214894      -0.05736463676294398     2.3223676305477744E-5
0.01                      0.01                     -0.157                   0.05988455530607291      -0.05996725107421416     2.550915321601865E-5
0.01                      0.01                     -0.156                   0.06260581540092125      -0.06268959718134837     2.780764082982589E-5
0.01                      0.01                     -0.155                   0.06545238249158004      -0.06553730141047479     3.0110910357804434E-5
0.01                      0.01                     -0.154                   0.06843015567277425      -0.06851626424363677     3.241017208387655E-5
0.01                      0.01                     -0.153                   0.07154532277025133      -0.07163267489970485     3.469617536951182E-5
0.01                      0.01                     -0.152                   0.07480437572499482      -0.07489302673434212     3.695934040512207E-5
0.01                      0.01                     -0.151                   0.07821412682471186      -0.0783041334945497      3.9189926569116674E-5
0.01                      0.01                     -0.15                    0.08178172581740331      -0.0818731464640313      4.137824275203262E-5
0.01                      0.01                     -0.149                   0.08551467794235848      -0.08560757253630019     4.3514905550766375E-5
0.01                      0.01                     -0.148                   0.08942086291449071      -0.08951529325319366     4.5591151790626635E-5
0.01                      0.01                     -0.147                   0.09350855489847518      -0.09360458484717064     4.7599212462015594E-5
0.01                      0.01                     -0.146                   0.09778644350970038      -0.09788413932650976     4.953275576475427E-5
0.01                      0.01                     -0.145                   0.1022636558795721       -0.10236308664322859     5.1387407664908274E-5
0.01                      0.01                     -0.144                   0.1069497798231993       -0.10705101798424722     5.31613590425586E-5
0.01                      0.01                     -0.143                   0.11185488814792177      -0.11195801022694755     5.485606928616786E-5
0.01                      0.01                     -0.142                   0.11698956414150345      -0.11709465160086267     5.647707694131696E-5
0.01                      0.01                     -0.141                   0.1223649282790536       -0.12247206859769294     5.803492884032439E-5
0.01                      0.01                     -0.14                    0.12799266618784969      -0.1281019541721882      5.9546239984742584E-5
0.01                      0.01                     -0.139                   0.13388505790914773      -0.13399659727656946     6.103489730076731E-5
0.01                      0.01                     -0.138                   0.14005500849574284      -0.14016891377111623     6.253342129711845E-5
0.01                      0.01                     -0.137                   0.14651607998343838      -0.1466324787531378      6.408450053883657E-5
0.01                      0.01                     -0.136                   0.15328252477358353      -0.15340156034584945     6.574271479928905E-5
0.01                      0.01                     -0.135                   0.160369320462434        -0.16049115498747613     6.757646364150447E-5
0.01                      0.01                     -0.134                   0.167792206151114        -0.16791702425920035     6.967011814935052E-5
0.01                      0.01                     -0.133                   0.1755627313385312       -0.17569051124462776     7.111901159034811E-5
0.01                      0.01                     -0.132                   0.1836990165346465       -0.18383286319539074     7.241754836756806E-5
0.01                      0.01                     -0.131                   0.1922214063725958       -0.19236115271818482     7.364504761255819E-5
0.01                      0.01                     -0.13                    0.20114861049618848      -0.20129408662122142     7.481268827707992E-5
0.01                      0.01                     -0.129                   0.21050025031357364      -0.2106512849205185      7.592848119840305E-5
0.01                      0.01                     -0.128                   0.2202969008806969       -0.22045332283377894     7.699750705628401E-5
0.01                      0.01                     -0.127                   0.23056013424831764      -0.2307217742386367      7.802216522361461E-5
0.01                      0.01                     -0.126                   0.24131256425545555      -0.24147925657696193     7.900243119822154E-5
0.01                      0.01                     -0.125                   0.25257789273933784      -0.2527494771739002      7.993612036511971E-5
0.01                      0.01                     -0.124                   0.26438095711710835      -0.2645572809252067      8.081915581314308E-5
0.01                      0.01                     -0.123                   0.2767477792773387       -0.2769286992889559      8.164583801448957E-5
0.01                      0.01                     -0.122                   0.28970561569955416      -0.28989100049755134     8.240911419553724E-5
0.01                      0.01                     -0.121                   0.3032830086972458       -0.3034727408829142      8.310084535030712E-5
0.01                      0.01                     -0.12                    0.3175098386537546       -0.3177038171812973      8.371206885801013E-5
0.01                      0.01                     -0.119                   0.33241737709076347      -0.33261551965418606     8.423325481126908E-5
0.01                      0.01                     -0.118                   0.3480383403753466       -0.348240585827652       8.465455419901279E-5
0.01                      0.01                     -0.117                   0.3644069438333799       -0.36461325461399796     8.496603719726633E-5
0.01                      0.01                     -0.116                   0.38155895599390627      -0.38176932053609264     8.515791988269099E-5
0.01                      0.01                     -0.115                   0.3995317526405512       -0.39974618772597453     8.522077772949823E-5
0.01                      0.01                     -0.114                   0.4183643702915537       -0.4185829233145813      8.514574435934035E-5
0.01                      0.01                     -0.113                   0.43809755866904193      -0.4383203097683981      8.492469395198317E-5
0.01                      0.01                     -0.112                   0.4587738316501544       -0.45900089566071434     8.455040584922621E-5
0.01                      0.01                     -0.111                   0.4804375161170495       -0.48066904428971624     8.401670975642428E-5
0.01                      0.01                     -0.11                    0.5031347980390366       -0.5033709794720522      8.331861002376271E-5
0.01                      0.01                     -0.109                   0.5269137650275746       -0.5271548277484096      8.245238738035433E-5
0.01                      0.01                     -0.108                   0.55182444450305         -0.5520706561364875      8.141567641652683E-5
0.01                      0.01                     -0.107                   0.5779188365007054       -0.5781705044560415      8.020751709896044E-5
0.01                      0.01                     -0.106                   0.6052509400212674       -0.6055084111301077      7.882837844881314E-5
0.01                      0.01                     -0.105                   0.6338767716995586       -0.6341404312357622      7.728015250065022E-5
0.01                      0.01                     -0.104                   0.6638543754213058       -0.6641246454367052      7.556611658687339E-5
0.01                      0.01                     -0.103                   0.6952438213647049       -0.6955211582786354      7.369086201290799E-5
0.01                      0.01                     -0.102                   0.728107192779095        -0.728392084167151       7.166018725737363E-5
0.01                      0.01                     -0.101                   0.7625085586391087       -0.762801519177225       6.948095400600975E-5
0.01                      0.01                     -0.1                     0.7985139301297048       -0.7988154966643671      6.71609046599757E-5
0.01                      0.01                     -0.099                   0.8361911987271273       -0.8365019244616545      6.470844039130332E-5
0.01                      0.01                     -0.098                   0.8756100534450899       -0.8759305012560191      6.213235959100001E-5
0.01                      0.01                     -0.097                   0.9168418746170839       -0.9171726095442528      5.944155746228716E-5
0.01                      0.01                     -0.096                   0.9599596013884455       -0.9603011823775545      5.6644688815566775E-5
0.01                      0.01                     -0.095                   1.0050375699001868       -1.0053905409177484      5.374979776878895E-5
0.01                      0.01                     -0.094                   1.0521513189666112       -1.0525161996539523      5.076392007660969E-5
0.01                      0.01                     -0.093                   1.101377359887548        -1.1017546359725026      4.7692666361842614E-5
0.01                      0.01                     -0.092                   1.1527929069023866       -1.1531830206434885      4.453979745566773E-5
0.01                      0.01                     -0.091                   1.2064755646976102       -1.2068789056942655      4.1306806600767597E-5
0.01                      0.01                     -0.09                    1.2625029693343839       -1.2629198660953407      3.799252722465335E-5
0.01                      0.01                     -0.089                   1.3209523789824664       -1.321383091700364       3.459278944482117E-5
0.01                      0.01                     -0.088                   1.3819002109476182       -1.3823449259750313      3.1100153447312023E-5
0.01                      0.01                     -0.087                   1.4454215216801998       -1.4458803482363514      2.750375284231183E-5
0.01                      0.01                     -0.086                   1.5115894267731436       -1.512062396422892       2.3789286682248076E-5
0.01                      0.01                     -0.085                   1.5804744584197084       -1.5809615278483635      1.9939203822096774E-5
0.01                      0.01                     -0.084                   1.6521438584283517       -1.652644915976331       1.593312834170811E-5
0.01                      0.01                     -0.083                   1.7266608057066275       -1.727175682014299       1.1748578741089378E-5
0.01                      0.01                     -0.082                   1.8040835781506017       -1.8046120610815803      7.362036678420407E-6
0.01                      0.01                     -0.081                   1.8844646501302276       -1.8850065038754518      2.7504221528778665E-6
0.01                      0.01                     -0.08                    1.9678497282602823       -1.968404716159362       -2.1069689213591442E-6
0.01                      0.01                     -0.079                   2.0542767298988487       -2.054844640034087       -7.22601298850967E-6
0.01                      0.01                     -0.078                   2.1437747108204532       -2.144355382828668       -1.2614748793959737E-5
0.01                      0.01                     -0.077                   2.236362750754582        -2.2369561015528765      -1.826977702780718E-5
0.01                      0.01                     -0.076                   2.332048807932567        -2.332654853162457       -2.41720548630038E-5
0.01                      0.01                     -0.075                   2.430828556396666        -2.431447423361957       -3.0282093548729953E-5
0.01                      0.01                     -0.074                   2.5326842225214095       -2.533316149246528       -3.6534596250385667E-5
0.01                      0.01                     -0.073                   2.637583439880331        -2.638228753681026       -4.2832608925858574E-5
0.01                      0.01                     -0.072                   2.7454781441346645       -2.746137211825366       -4.904129886130576E-5
0.01                      0.01                     -0.071                   2.8563035318721006       -2.856976672509797       -5.498152341803134E-5
0.01                      0.01                     -0.07                    2.969977109106674        -2.9706644590912865      -6.0423404375906716E-5
0.01                      0.01                     -0.069                   3.086397856271654        -3.0870991758150303      -6.508017975663665E-5
0.01                      0.01                     -0.068                   3.2054455367951387       -3.2061599463871198      -6.860266309872842E-5
0.01                      0.01                     -0.067                   3.3269801755496315       -3.327705811262372       -7.057469692345065E-5
0.01                      0.01                     -0.066                   3.4508418401257046       -3.4515794640661053      -8.810149136425651E-5
0.01                      0.01                     -0.065                   3.5768585873751477       -3.577618249260776       -9.709608318127515E-5
0.01                      0.01                     -0.064                   3.7048089184443707       -3.705588670588149       -1.0537524156471948E-4
0.01                      0.01                     -0.063                   3.834472850043414        -3.8352705843375428      -1.1294919244976556E-4
0.01                      0.01                     -0.062                   3.965611779748617        -3.9664252623334315      -1.1984025284719085E-4
0.01                      0.01                     -0.061                   4.097969561485882        -4.09879647113507        -1.2608170633595896E-4
0.01                      0.01                     -0.06                    4.231273899501607        -4.232111869016107       -1.3171618021964892E-4
0.01                      0.01                     -0.059                   4.365238059142285        -4.366084718819106       -1.3679358101642414E-4
0.01                      0.01                     -0.058                   4.499562884413986        -4.500415906433522       -1.4136869496870466E-4
0.01                      0.01                     -0.057                   4.63393910360111         -4.634796245972662       -1.4549860839243786E-4
0.01                      0.01                     -0.056                   4.768049895536517        -4.7689090440741895      -1.4924014251563918E-4
0.01                      0.01                     -0.055                   4.90157368079432         -4.902432887484291       -1.5264752192122746E-4
0.01                      0.01                     -0.054                   5.03418709447388         -5.0350446105581135      -1.5577049841455188E-4
0.01                      0.01                     -0.053                   5.165568090669874        -5.166422392829139       -1.5865312806985615E-4
0.01                      0.01                     -0.052                   5.295399123428705        -5.296248931612566       -1.6133334610604394E-4
0.01                      0.01                     -0.051                   5.423370345145771        -5.424214630876756       -1.6384340365044054E-4
0.01                      0.01                     -0.05                    5.5491827610491695       -5.55002074542125        -1.6621112795814594E-4
0.01                      0.01                     -0.049                   5.672551277653991        -5.67338241874048        -1.6846185357534974E-4
0.01                      0.01                     -0.048                   5.793207583811849        -5.794031553771908       -1.7062075985209727E-4
0.01                      0.01                     -0.047                   5.910902805144604        -5.911719457937791       -1.727152562186994E-4
0.01                      0.01                     -0.046                   6.025409876162363        -6.026219207403757       -1.7477699697872218E-4
0.01                      0.01                     -0.045                   6.136525579167464        -6.137327680233654       -1.768430956795579E-4
0.01                      0.01                     -0.044                   6.244072205124793        -6.244867214102085       -1.7895615480343185E-4
0.01                      0.01                     -0.043                   6.347898799056737        -6.348686851460005       -1.8116283128735854E-4
0.01                      0.01                     -0.042                   6.447881961244446        -6.44866314358866        -1.8351081627715954E-4
0.01                      0.01                     -0.041                   6.543926185617649        -6.544700494867538       -1.860443041372958E-4
0.01                      0.01                     -0.04                    6.635963728167113        -6.6367310398143395      -1.8879823899660512E-4
0.01                      0.01                     -0.039                   6.723954010884419        -6.724714057914726       -1.9179183071068063E-4
0.01                      0.01                     -0.038                   6.807882580341686        -6.808634944683355       -1.950219978855185E-4
0.01                      0.01                     -0.037                   6.887759654113028        -6.888503771346613       -1.9845749802894613E-4
0.01                      0.01                     -0.036                   6.963618302178422        -6.964353479391017       -2.0203452472082432E-4
0.01                      0.01                     -0.035                   7.035512323457296        -7.036237769205341       -2.056544791815783E-4
0.01                      0.01                     -0.034                   7.103513888817331        -7.104228753284475       -2.0918446050729566E-4
0.01                      0.01                     -0.033                   7.167711030399384        -7.168414453061049       -2.1246077878026937E-4
0.01                      0.01                     -0.032                   7.228205062074658        -7.228896223561761       -2.1529550301081627E-4
0.01                      0.01                     -0.031                   7.285108016658383        -7.285786191092384       -2.1748574339134193E-4
0.01                      0.01                     -0.03                    7.338540181761415        -7.339204785641654       -2.1882507175943305E-4
0.01                      0.01                     -0.029                   7.388627807810893        -7.389278441592154       -2.1911624071445124E-4
0.01                      0.01                     -0.028                   7.435501049129466        -7.436137527938198       -2.1818420116776052E-4
0.01                      0.01                     -0.027                   7.479292182718694        -7.479914553215424       -2.1588836056220777E-4
0.01                      0.01                     -0.026                   7.520134130578811        -7.520742671763622       -2.1213307758611932E-4
0.01                      0.01                     -0.025                   7.558159291317553        -7.558754498065945       -2.0687554772614143E-4
0.01                      0.01                     -0.024                   7.593498666929528        -7.594081216194728       -2.0013047729113573E-4
0.01                      0.01                     -0.023                   7.626281252482746        -7.626851953351382       -1.9197124124768614E-4
0.01                      0.01                     -0.022                   7.656633641456563        -7.657193371527791       -1.825275334961458E-4
0.01                      0.01                     -0.021                   7.684679788831286        -7.6852294206222105      -1.7197980792360947E-4
0.01                      0.01                     -0.02                    7.7105408685841885       -7.7110811907542764      -1.6055103787765337E-4
0.01                      0.01                     -0.019                   7.734335162409513        -7.734866801446012       -1.4849646399998012E-4
0.01                      0.01                     -0.018                   7.75617792217578         -7.756701270695646       -1.360920418376948E-4
0.01                      0.01                     -0.017                   7.7761811592979155       -7.776696317216409       -1.2362224342604304E-4
0.01                      0.01                     -0.016                   7.794453328829889        -7.794960063261234       -1.1136772946243373E-4
0.01                      0.01                     -0.015                   7.811098893321843        -7.811596622189734       -9.959322323897481E-5
0.01                      0.01                     -0.014                   7.826217769759993        -7.826705572728239       -8.853572628990532E-5
0.01                      0.01                     -0.013                   7.839904680565901        -7.840381339137933       -7.839306516127932E-5
0.01                      0.01                     -0.012                   7.852248445098216        -7.852712511730029       -6.931269228842957E-5
0.01                      0.01                     -0.011                   7.863331260008369        -7.8637811540612335      -6.138071530030969E-5
0.01                      0.01                     -0.01                    7.873228024106119        -7.8736621507336455      -5.461131604517103E-5
0.01                      0.01                     -0.009                   7.882005765441674        -7.882422652426926       -4.893704075797884E-5
0.01                      0.01                     -0.008                   7.889723224886789        -7.890121672434159       -4.420087077342124E-5
0.01                      0.01                     -0.007                   7.896430641802024        -7.896809881782464       -4.0151471583797446E-5
0.01                      0.01                     -0.006                   7.902169774006072        -7.902529638573035       -3.6443500294300335E-5
0.01                      0.01                     -0.005                   7.906974167137472        -7.9073152723322435      -3.264524746943371E-5
0.01                      0.01                     -0.004                   7.910869668797897        -7.911193626984341       -2.8256113484409907E-5
0.01                      0.01                     -0.003                   7.913875161939623        -7.914184847707581       -2.273639020790514E-5
0.01                      0.01                     -0.002                   7.916003471249536        -7.916303378622745       -1.5551468906085334E-5
0.01                      0.01                     -0.001                   7.917262377244988        -7.917559121150147       -6.231881972067416E-6
0.01                      0.01                     0                        7.91765565682645         -7.9179586880242105      5.550499591821959E-6
0.01                      0.01                     0.001                    7.917249519368257        -7.91741190449006        -1.0443662991769414E-4
0.01                      0.01                     0.002                    7.9161136579486255       -7.9162399359245486      1.922779254143192E-5
0.01                      0.01                     0.003                    7.914049085388594        -7.9141843836228265      9.645508246548736E-5
0.01                      0.01                     0.004                    7.911058471153859        -7.911230839718544       1.3468988210090253E-4
0.01                      0.01                     0.005                    7.907139703500785        -7.907362430169828       1.4211157718273747E-4
0.01                      0.01                     0.006                    7.902284620521313        -7.902558753202006       1.2711581227391823E-4
0.01                      0.01                     0.007                    7.896477818763757        -7.896794821099987       9.781113931358416E-5
0.01                      0.01                     0.008                    7.889695619522252        -7.890040071447513       6.156487888161018E-5
0.01                      0.01                     0.009                    7.881905255407342        -7.882257501217993       2.4629186223500566E-5
0.01                      0.01                     0.01                     7.873064319882592        -7.87340296319035        -8.127703905577298E-6
0.01                      0.01                     0.011                    7.86312050139103         -7.863424649818667       -3.3368600863054715E-5
0.01                      0.01                     0.012                    7.852011602844834        -7.852262775692855       -4.930667852475948E-5
0.01                      0.01                     0.013                    7.8396658279314035       -7.839849456797107       -5.560187101060941E-5
0.01                      0.01                     0.014                    7.82600229911964         -7.8261087735400885      -5.314991436951603E-5
0.01                      0.01                     0.015                    7.81093175948773         -7.810956995548928       -4.378880972299358E-5
0.01                      0.01                     0.016                    7.794357402346785        -7.794302939931749       -2.9954208813378702E-5
0.01                      0.01                     0.017                    7.776175769600431        -7.776048431424976       -1.4318742141983156E-5
0.01                      0.01                     0.018                    7.756277661986131        -7.756088832678812       5.497457734159202E-7
0.01                      0.01                     0.019                    7.73454901151422         -7.734313615819954       1.2479681031627983E-5
0.01                      0.01                     0.02                     7.710871677879154        -7.710606952055591       1.9912276786762748E-5
0.01                      0.01                     0.021                    7.685124145324958        -7.684848303915831       2.202738181089533E-5
0.01                      0.01                     0.022                    7.657182113075192        -7.656913014033858       1.8773215111240105E-5
0.01                      0.01                     0.023                    7.626918989485933        -7.626672894245424       1.0804901137658038E-5
0.01                      0.01                     0.024                    7.594206316003266        -7.593996828285158       -6.539498169744564E-7
0.01                      0.01                     0.025                    7.5589141603673635       -7.558751409514887       -1.4005056425149369E-5
0.01                      0.01                     0.026                    7.520911528104719        -7.520801641097148       -2.7498536907886626E-5
0.01                      0.01                     0.027                    7.48006684634641         -7.480011729185988       -3.945763449422703E-5
0.01                      0.01                     0.028                    7.436248573989846        -7.436245999675331       -4.847916720123553E-5
0.01                      0.01                     0.029                    7.389325987227796        -7.38936996575801        -5.3588231612640284E-5
0.01                      0.01                     0.03                     7.339170179978009        -7.339251567246715       -5.4332296604877955E-5
0.01                      0.01                     0.031                    7.285655305605072        -7.285762593803511       -5.0807716847159963E-5
0.01                      0.01                     0.032                    7.228660070639045        -7.228780293630589       -4.361991080677262E-5
0.01                      0.01                     0.033                    7.168069474215459        -7.168189157619223       -3.378602727682929E-5
0.01                      0.01                     0.034                    7.103776769952892        -7.10388285728748        -2.259502954858795E-5
0.01                      0.01                     0.035                    7.035685611117653        -7.035766303841693       -1.1444132201799198E-5
0.01                      0.01                     0.036                    6.963712326181539        -6.963757786026365       -1.6720826422422048E-6
0.01                      0.01                     0.037                    6.887788260994682        -6.8877911365620745      5.591153542895732E-6
0.01                      0.01                     0.038                    6.807862116239303        -6.807817871211058       9.541911687226644E-6
0.01                      0.01                     0.039                    6.723902204805756        -6.723809240992401       9.776050655646476E-6
0.01                      0.01                     0.04                     6.635898553213607        -6.635758136799331       6.312302201727282E-6
0.01                      0.01                     0.041                    6.543864773975142        -6.543680786570434       -4.3364808231954074E-7
0.01                      0.01                     0.042                    6.447839641520595        -6.447618188111419       -9.718063981217653E-6
0.01                      0.01                     0.043                    6.34788831254482         -6.347637225514606       -2.0570233271126294E-5
0.01                      0.01                     0.044                    6.244103141922141        -6.243831423740564       -3.191198533761971E-5
0.01                      0.01                     0.045                    6.136604057186432        -6.136321304167143       -4.268084770037457E-5
0.01                      0.01                     0.046                    6.025538467510729        -6.025254313613452       -5.194278248644006E-5
0.01                      0.01                     0.047                    5.911080696681773        -5.91080431030385        -5.898276398607334E-5
0.01                      0.01                     0.048                    5.793430943304701        -5.793170602178724       -6.33649325507488E-5
0.01                      0.01                     0.049                    5.672813784959515        -5.672576545530545       -6.495816265341954E-5
0.01                      0.01                     0.05                     5.549476255846459        -5.549267724707962       -6.392706192024912E-5
0.01                      0.01                     0.051                    5.423685539200169        -5.423509746080732       -6.0692170690293166E-5
0.01                      0.01                     0.052                    5.295726326044907        -5.295585691044184       -5.58660646466636E-5
0.01                      0.01                     0.053                    5.165897900364789        -5.1657932830144         -5.017393099823075E-5
0.01                      0.01                     0.054                    5.034511017186461        -5.034441831619437       -4.4367907157451416E-5
0.01                      0.01                     0.055                    4.901884644203934        -4.901849023213138       -3.9144106608858965E-5
0.01                      0.01                     0.056                    4.768342639292918        -4.768337630141201       -3.506999672703859E-5
0.01                      0.01                     0.057                    4.634210435546499        -4.6342322117432975      -3.252790421913652E-5
0.01                      0.01                     0.058                    4.49981180240794         -4.4998558779148095      -3.16782043304647E-5
0.01                      0.01                     0.059                    4.3654657462824344       -4.365527181372478       -3.2443489280545686E-5
0.01                      0.01                     0.06                     4.231483606978678        -4.231557197904525       -3.451295444634758E-5
0.01                      0.01                     0.061                    4.098166397844603        -4.098246845281115       -3.73645668775794E-5
0.01                      0.01                     0.062                    3.965802427954607        -3.9658844816681196      -4.030139418391814E-5
0.01                      0.01                     0.063                    3.8346652346383507       -3.8347438138667633      -4.249780412039162E-5
0.01                      0.01                     0.064                    3.705011844468743        -3.7050821350221557      -4.305106691469905E-5
0.01                      0.01                     0.065                    3.577081370970606        -3.577138901087809       -4.103412840156121E-5
0.01                      0.01                     0.066                    3.4510939481379532       -3.451134645710858       -3.554587088096066E-5
0.01                      0.01                     0.067                    3.3272499906494635       -3.3272702246343298      -2.5755928738512257E-5
0.01                      0.01                     0.068                    3.2057168850950286       -3.205746031512068       -2.4037622020998105E-5
0.01                      0.01                     0.069                    3.0866668199358482       -3.0866979869389364      -1.9460952039023524E-5
0.01                      0.01                     0.07                     2.9702447847560998       -2.9702810223292677      -1.730512700983712E-5
0.01                      0.01                     0.071111                 2.8441266483699708       -2.8441714894371053      -1.6700443121140502E-5
0.01                      0.01                     0.072222                 2.721536332578813        -2.7215922033761504      -1.71476340677824E-5
0.01                      0.01                     0.073333                 2.602582586038019        -2.602651202361385       -1.805049684351314E-5
0.01                      0.01                     0.074444                 2.487347651139911        -2.48743007380861        -1.9026368197470618E-5
0.01                      0.01                     0.075556                 2.3757902706320655       -2.3758870014349944      -1.985578554784367E-5
0.01                      0.01                     0.076667                 2.268145342967802        -2.2682563836988052      -2.0436943371834052E-5
0.01                      0.01                     0.077778                 2.164323832663995        -2.1644488270144415      -2.0755101225180107E-5
0.01                      0.01                     0.078889                 2.0643194460045007       -2.0644577673372475      -2.0850905646693888E-5
0.01                      0.01                     0.08                     1.9681085603436972       -1.968259404344214       -2.079881165145301E-5
0.01                      0.01                     0.081                    1.8847220593916139       -1.884883406071971       -2.0700575348706166E-5
0.01                      0.01                     0.082                    1.8043395978938097       -1.8045106943640763      -2.06255374509412E-5
0.01                      0.01                     0.083                    1.726915505419369        -1.7270956131798827      -2.0639912700845786E-5
0.01                      0.01                     0.084                    1.6523973361246622       -1.6525857599120493      -2.0802971546353345E-5
0.01                      0.01                     0.085                    1.5807268327154769       -1.5809229418881996      -2.116454568784135E-5
0.01                      0.01                     0.086                    1.5118408292316197       -1.5120440723892186      -2.1763623825378915E-5
0.01                      0.01                     0.087                    1.4456720897910684       -1.4458820034533955      -2.2627808705674826E-5
0.01                      0.01                     0.088                    1.3821500819653685       -1.3823662941992791      -2.3773436257708172E-5
0.01                      0.01                     0.089                    1.3212016847428987       -1.3214239146304139      -2.520618604794154E-5
0.01                      0.01                     0.09                     1.2627518320875295       -1.262979885895524       -2.6922038809333728E-5
0.01                      0.01                     0.091                    1.2067240939367763       -1.2069578587862146      -2.8908461126723626E-5
0.01                      0.01                     0.092                    1.1530411971283692       -1.1532806328811682      -3.1145719406265924E-5
0.01                      0.01                     0.093                    1.1016254892207127       -1.1018706192126697      -3.36082447530498E-5
0.01                      0.01                     0.094                    1.0523993485044019       -1.0526502496596628      -3.626598768385593E-5
0.01                      0.01                     0.095                    1.0052855437109067       -1.0055423364819331      -3.9085716377588715E-5
0.01                      0.01                     0.096                    0.9602075470317768       -0.960470385522052       -4.203222493022747E-5
0.01                      0.01                     0.097                    0.9170898040857978       -0.9173588666327925      -4.506942871438196E-5
0.01                      0.01                     0.098                    0.8758579644294493       -0.8761334448540526      -4.8161332784000784E-5
0.01                      0.01                     0.099                    0.8364390761122832       -0.836721175778502       -5.127286643873935E-5
0.01                      0.01                     0.1                      0.798761747646238        -0.7990506684215856      -5.43705827476438E-5
0.01                      0.01                     0.101                    0.7627562805970038       -0.7630522187593549      -5.742322631058366E-5
0.01                      0.01                     0.102                    0.7283547758254179       -0.7286579169256236      -6.040217577917649E-5
0.01                      0.01                     0.103                    0.6954912162148353       -0.6958017308753078      -6.328177011274847E-5
0.01                      0.01                     0.104                    0.6641015285224368       -0.6644195691294992      -6.603952910993468E-5
0.01                      0.01                     0.105                    0.6341236267933107       -0.6344493250244126      -6.865627972113786E-5
0.01                      0.01                     0.106                    0.6054974395795644       -0.60583090469482        -7.111620003397991E-5
0.01                      0.01                     0.107                    0.5781649230155023       -0.5785062408354686      -7.340679293663474E-5
0.01                      0.01                     0.108                    0.552070061616206        -0.5524192941038062      -7.551880098093634E-5
0.01                      0.01                     0.109                    0.5271588584920497       -0.5275160438553299      -7.744607358786169E-5
0.01                      0.01                     0.11                     0.503379316506867        -0.5037444697403         -7.918539687017174E-5
0.01                      0.01                     0.111                    0.48068141175312423      -0.4810545255379601      -8.07362955688873E-5
0.01                      0.01                     0.112                    0.45901706057392017      -0.4593981064621714      -8.210081564300132E-5
0.01                      0.01                     0.113                    0.4383400812287922       -0.43872901104048856     -8.328329512970889E-5
0.01                      0.01                     0.114                    0.41860615117814604      -0.4190028985472019      -8.429012987461461E-5
0.01                      0.01                     0.115                    0.39977276084912705      -0.40017724285925244     -8.512953988208894E-5
0.01                      0.01                     0.116                    0.38179916464365593      -0.38221128350205513     -8.58113410333918E-5
0.01                      0.01                     0.117                    0.3646463298565392       -0.36506597455947737     -8.634672615495583E-5
0.01                      0.01                     0.118                    0.3482768840875341       -0.3487039320381147      -8.674805858816835E-5
0.01                      0.01                     0.119                    0.3326550616554417       -0.333089380199988       -8.702868068828075E-5
0.01                      0.01                     0.12                     0.31774664945410824      -0.3181880973093808      -8.720273903454326E-5
0.01                      0.01                     0.121                    0.3035189326290625       -0.3039673611780226      -8.728502754980308E-5
0.01                      0.01                     0.122                    0.28994064039889106      -0.2903958948378865      -8.729084917977622E-5
0.01                      0.01                     0.123                    0.2769818922967327       -0.277443812621748       -8.723589637749263E-5
0.01                      0.01                     0.124                    0.2646141450640049       -0.2650825668880293      -8.713615018838298E-5
0.01                      0.01                     0.125                    0.25281014039014854      -0.2532848955876956      -8.70077974500654E-5
0.01                      0.01                     0.126                    0.2415438536583302       -0.24202477083676205     -8.686716530925544E-5
0.01                      0.01                     0.127                    0.23079044382723002      -0.23127734862776184     -8.67306720652702E-5
0.01                      0.01                     0.128                    0.22052620455291838      -0.2210189197870126      -8.661479311575625E-5
0.01                      0.01                     0.129                    0.21072851663196066      -0.2112268622613154      -8.653604070958041E-5
0.01                      0.01                     0.13                     0.20137580182698744      -0.2018795947974335      -8.651095606138614E-5
0.01                      0.01                     0.131                    0.19244747811869925      -0.19295653206011665     -8.655611232396678E-5
0.01                      0.01                     0.132                    0.18392391641336553      -0.184438041219205       -8.668812690097181E-5
0.01                      0.01                     0.133                    0.17578639872207072      -0.17630540002321715     -8.692368154047703E-5
0.01                      0.01                     0.134                    0.1680170778170062       -0.16854075636560772     -8.727954867707306E-5
0.01                      0.01                     0.135                    0.16059893836080846      -0.16112708934030398     -8.777262252541941E-5
0.01                      0.01                     0.136                    0.1535136556619474       -0.15404716213569786     -8.647302726637318E-5
0.01                      0.01                     0.137                    0.1467466141747988       -0.1472828825836462      -8.522104101609876E-5
0.01                      0.01                     0.138                    0.1402844765520538       -0.14082462557381928     -8.374877315932795E-5
0.01                      0.01                     0.139                    0.1341131267942674       -0.13465800244809836     -8.208683181580467E-5
0.01                      0.01                     0.14                     0.1282191201203362       -0.1287693317131836      -8.026109786175645E-5
0.01                      0.01                     0.141                    0.12258965076941429      -0.1231456042261311      -7.829325405240137E-5
0.01                      0.01                     0.142                    0.11721252125316316      -0.11777444981531182     -7.620129179049744E-5
0.01                      0.01                     0.143                    0.1120761130112082       -0.11264410531602902     -7.39999932103478E-5
0.01                      0.01                     0.144                    0.10716935842163447      -0.10774338399633059     -7.170138655316632E-5
0.01                      0.01                     0.145                    0.1024817141177857       -0.1030616463453723      -6.931517312765163E-5
0.01                      0.01                     0.146                    0.0980031355624414       -0.09858877219397867     -6.684912446646694E-5
0.01                      0.01                     0.147                    0.09372405283060013      -0.09431513413471981     -6.430944860179509E-5
0.01                      0.01                     0.148                    0.08963534755250485      -0.0902315722068953      -6.170112471417312E-5
0.01                      0.01                     0.149                    0.08572833096917719      -0.08632936981015686     -5.902820569335832E-5
0.01                      0.01                     0.15                     0.08199472305356671      -0.08260023080916962     -5.6294088484627164E-5
0.01                      0.01                     0.151                    0.07842663265137481      -0.07903625779060292     -5.350175235260783E-5
0.01                      0.01                     0.152                    0.07501653859671067      -0.07562993143288745     -5.065396549906646E-5
0.01                      0.01                     0.153                    0.07175727175891491      -0.07237409094850353     -4.775346071605644E-5
0.01                      0.01                     0.154                    0.06864199797814657      -0.06926191555814262     -4.480308101574332E-5
0.01                      0.01                     0.155                    0.06566420184862284      -0.06628690695576425     -4.1805896389854064E-5
0.01                      0.01                     0.156                    0.06281767130975631      -0.06344287272350391     -3.876529307404558E-5
0.01                      0.01                     0.157                    0.06009648300679405      -0.06072391065540886     -3.5685036860103845E-5
0.01                      0.01                     0.158                    0.05749498838394136      -0.05812439394919036     -3.256931217465858E-5
0.01                      0.01                     0.159                    0.05500780047434049      -0.055638957225516913    -2.9422738764028912E-5
0.01                      0.01                     0.16                     0.052629781352644324     -0.05326248333484165     -2.6250367955433146E-5
0.01                      0.01                     0.161                    0.05035603021729758      -0.0509900909123377      -2.305766053312919E-5
0.01                      0.01                     0.162                    0.048181872070982415     -0.048817122642230024    -1.9850448353813597E-5
0.01                      0.01                     0.163                    0.04610284696901497      -0.04673913419361541     -1.6634881835716845E-5
0.01                      0.01                     0.164                    0.04411469980678724      -0.04475188379076569     -1.3417365501037202E-5
0.01                      0.01                     0.165                    0.04221337061861269      -0.04285132238190952     -1.0204483724023245E-5
0.01                      0.01                     0.166                    0.040394985361595165     -0.04103358437155814     -7.002918808284866E-6
0.01                      0.01                     0.167                    0.038655847159341894     -0.03929497888258748     -3.819363473586121E-6
0.01                      0.01                     0.168                    0.03699242798152676      -0.03763198151550136     -6.604297608217279E-7
0.01                      0.01                     0.169                    0.03540136073645718      -0.03604122657355947     2.4674437392218826E-6
0.01                      0.01                     0.17                     0.033879431754904404     -0.03451949972376102     5.558084509943304E-6
0.01                      0.01                     0.171                    0.032423573644537566     -0.03306373106502971     8.605676898146953E-6
0.01                      0.01                     0.172                    0.031030858495329862     -0.03167098857629564     1.1604849512869934E-5
0.01                      0.01                     0.173                    0.02969849141732199      -0.030338471918586407    1.455075780651238E-5
0.01                      0.01                     0.174                    0.028423804393073987     -0.02906350656661731     1.74391605829908E-5
0.01                      0.01                     0.175                    0.027204250428082777     -0.027843538246785947    2.0266489314390275E-5
0.01                      0.01                     0.176                    0.026037397983320346     -0.026676127659865274    2.3029909330052045E-5
0.01                      0.01                     0.177                    0.024920925674914142     -0.02555894546808038     2.572737208626951E-5
0.01                      0.01                     0.178                    0.023852617226799766     -0.024489767527603484    2.835765790974952E-5
0.01                      0.01                     0.179                    0.022830356662969953     -0.023466470348853324    3.092040875575788E-5
0.01                      0.01                     0.18                     0.021852123726686754     -0.022487026768263425    3.341615068874516E-5
0.01                      0.01                     0.181                    0.02091598951474033      -0.021549501816475407    3.5846305954813E-5
0.01                      0.01                     0.182                    0.02002011231551981      -0.020652048769100755    3.821319464803974E-5
0.01                      0.01                     0.183                    0.019162733640306184     -0.019792905367389473    4.052002613068385E-5
0.01                      0.01                     0.184                    0.01834217443781546      -0.01897039019724458     4.277088048564098E-5
0.01                      0.01                     0.185                    0.01755683148260203      -0.018182899216092847    4.497068041086284E-5
0.01                      0.01                     0.186                    0.01680517392848651      -0.01742890241811846     4.7125154063210215E-5
0.01                      0.01                     0.187                    0.016085740018692014     -0.016706940629316068    4.924078947120503E-5
0.01                      0.01                     0.188                    0.015397133944869322     -0.016015622424697187    5.1324781205095335E-5
0.01                      0.01                     0.189                    0.014738022847656157     -0.015353621160802404    5.3384970079863046E-5
0.01                      0.01                     0.19                     0.01410713395185053      -0.014719672117429854    5.5429776709940316E-5
0.01                      0.01                     0.191                    0.01350325182969725      -0.014112569743183298    5.746812979530762E-5
0.01                      0.01                     0.192                    0.01292521578616207      -0.013531165000071642    5.95093900336753E-5
0.01                      0.01                     0.193                    0.012371917360442207     -0.012974362802968716    6.156327058817553E-5
0.01                      0.01                     0.194                    0.011842297938292015     -0.012441119550242824    6.363975503508734E-5
0.01                      0.01                     0.195                    0.01133534647006175      -0.011930440742332349    6.574901371637199E-5
0.01                      0.01                     0.196                    0.010850097289646324     -0.011441378685429472    6.7901319403085E-5
0.01                      0.01                     0.197                    0.010385628029810787     -0.010973030277789154    7.010696315150084E-5
0.01                      0.01                     0.198                    0.009941057629618243     -0.010524534876475401    7.237617119153117E-5
0.01                      0.01                     0.199                    0.009515544429926671     -0.010095072242601089    7.471902365069365E-5
