% Model:              Asacusa_quad_secondTriplet_long.mph
% Version:            COMSOL 5.5.0.359
% Date:               Jan 9 2024, 10:26
% Dimension:          3
% Nodes:              399
% Expressions:        3
% Description:        Electric field, x component, Electric field, y component, Electric field, z component
% Length unit:        m
% x                       y                        z                        esbe.Ex (V/m)            esbe.Ey (V/m)            esbe.Ez (V/m)
0.01                      0.01                     -0.2                     0.015732142810937537     -0.015544674247919905    2.294345613090738E-4
0.01                      0.01                     -0.199                   0.01659449060526137      -0.016414049870284286    2.3513463555967584E-4
0.01                      0.01                     -0.198                   0.017504332331797948     -0.017331202602050514    2.4087731017178053E-4
0.01                      0.01                     -0.197                   0.018464306210971605     -0.01829877434273167     2.4666136868095264E-4
0.01                      0.01                     -0.196                   0.01947719948197386      -0.019319555971752177    2.524854404508249E-4
0.01                      0.01                     -0.195                   0.020545957071163766     -0.020396496031077516    2.5834798957064117E-4
0.01                      0.01                     -0.194                   0.021673690785570895     -0.021532709934280764    2.642473035917165E-4
0.01                      0.01                     -0.193                   0.022863689064699134     -0.022731489735171594    2.7018148208898243E-4
0.01                      0.01                     -0.192                   0.024119427326004278     -0.02399631449128187     2.761484250546049E-4
0.01                      0.01                     -0.191                   0.02544457894174771      -0.025330861259789308    2.821458211133059E-4
0.01                      0.01                     -0.19                    0.026843026887398966     -0.026739016765927742    2.881711355647806E-4
0.01                      0.01                     -0.189                   0.028318876104405404     -0.028224889786526423    2.942215982484045E-4
0.01                      0.01                     -0.188                   0.029876466622970707     -0.029792824294124644    3.00294191239796E-4
0.01                      0.01                     -0.187                   0.031520387493470935     -0.03144741341006209     3.0638563638848407E-4
0.01                      0.01                     -0.186                   0.03325549157835614      -0.03319351421811533     3.124923827252396E-4
0.01                      0.01                     -0.185                   0.03508691125977743      -0.0350362634936176      3.18610593754297E-4
0.01                      0.01                     -0.184                   0.03702007512182217      -0.03698109440658294     3.2473613468626876E-4
0.01                      0.01                     -0.183                   0.03906072567009273      -0.03903375426118504     3.3086455964968043E-4
0.01                      0.01                     -0.182                   0.04121493815548189      -0.04120032333799452     3.369910989504231E-4
0.01                      0.01                     -0.181                   0.043489140573362825     -0.04348723490971843     3.431106464517E-4
0.01                      0.01                     -0.18                    0.045890134914063        -0.04590129650578121     3.4921774715394134E-4
0.01                      0.01                     -0.179                   0.048425119745412616     -0.04844971250598568     3.5530658507390263E-4
0.01                      0.01                     -0.178                   0.051101714213403746     -0.05114010814869233     3.613709715198678E-4
0.01                      0.01                     -0.177                   0.053927983552534905     -0.053980555044487795    3.67404333869548E-4
0.01                      0.01                     -0.176                   0.056912466203302293     -0.05697959829217535     3.7339970495919096E-4
0.01                      0.01                     -0.175                   0.060064202640509594     -0.06014628530014582     3.793497131977296E-4
0.01                      0.01                     -0.174                   0.06339276602264736      -0.06349019642278902     3.8524657350109915E-4
0.01                      0.01                     -0.173                   0.06690829477952595      -0.06702147752857768     3.910820791584499E-4
0.01                      0.01                     -0.172                   0.0706215272626509       -0.07075087462385264     3.968475947037289E-4
0.01                      0.01                     -0.171                   0.07454383859052062      -0.07468977066412255     4.025340498816308E-4
0.01                      0.01                     -0.17                    0.07868727982908988      -0.07885022469292229     4.0813193475578433E-4
0.01                      0.01                     -0.169                   0.08306461965609059      -0.08324501345690173     4.136312960070905E-4
0.01                      0.01                     -0.168                   0.08768938866672765      -0.08788767565491365     4.190217344369951E-4
0.01                      0.01                     -0.167                   0.09257592648743948      -0.09279255898835326     4.242924036778522E-4
0.01                      0.01                     -0.166                   0.09773943187395925      -0.097974870189929       4.294320100894926E-4
0.01                      0.01                     -0.165                   0.10319601597973854      -0.10345072821835354     4.344288137990265E-4
0.01                      0.01                     -0.164                   0.10896275899091869      -0.10923722081714245     4.392706308309717E-4
0.01                      0.01                     -0.163                   0.11505777033437617      -0.11535246464669822     4.4394483625205425E-4
0.01                      0.01                     -0.162                   0.12150025267585161      -0.12181566921016831     4.484383682555337E-4
0.01                      0.01                     -0.161                   0.12831056993573495      -0.12864720480503808     4.527377331059829E-4
0.01                      0.01                     -0.16                    0.13551031956057955      -0.1358686747440058      4.5682901086142397E-4
0.01                      0.01                     -0.159                   0.14312240929873532      -0.14350299210026962     4.6069786181484874E-4
0.01                      0.01                     -0.158                   0.15117113873845742      -0.15157446124374302     4.643295336066697E-4
0.01                      0.01                     -0.157                   0.15968228587621894      -0.16010886444575673     4.6770886900053814E-4
0.01                      0.01                     -0.156                   0.16868319899152284      -0.16913355384024228     4.7082031432925283E-4
0.01                      0.01                     -0.155                   0.17820289411191345      -0.17867754903894836     4.736479286972176E-4
0.01                      0.01                     -0.154                   0.18827215835777966      -0.1887716407065617      4.761753940462263E-4
0.01                      0.01                     -0.153                   0.19892365946045829      -0.19944850040825807     4.783860262734449E-4
0.01                      0.01                     -0.152                   0.2101920617485429       -0.21074279704670898     4.8026278763212924E-4
0.01                      0.01                     -0.151                   0.22211414889552053      -0.22269132020726348     4.817883007459127E-4
0.01                      0.01                     -0.15                    0.2347289537161517       -0.2353331107282222      4.8294486459974116E-4
0.01                      0.01                     -0.149                   0.2480778952884099       -0.24870959880689086     4.8371447296436136E-4
0.01                      0.01                     -0.148                   0.26220492366127346      -0.2628647499404556      4.840788357635128E-4
0.01                      0.01                     -0.147                   0.2771566723848647       -0.2778452189823739      4.840194039676073E-4
0.01                      0.01                     -0.146                   0.2929826190668847       -0.29370051256847124     4.835173986295021E-4
0.01                      0.01                     -0.145                   0.30973525411618186      -0.3104831601305598      4.8255384475486E-4
0.01                      0.01                     -0.144                   0.3274702577785246       -0.3282488936670577      4.811096107092537E-4
0.01                      0.01                     -0.143                   0.3462466854987374       -0.34705683637742796     4.7916545392379204E-4
0.01                      0.01                     -0.142                   0.3661271615544527       -0.3669697001874213      4.7670207366861826E-4
0.01                      0.01                     -0.141                   0.3871780807964175       -0.3880539920918215      4.7370017169793253E-4
0.01                      0.01                     -0.14                    0.409469818194712        -0.41038022911675964     4.7014052160324494E-4
0.01                      0.01                     -0.139                   0.43307694572477307      -0.4340231615502673      4.660040477472834E-4
0.01                      0.01                     -0.138                   0.4580784559265593       -0.45906200390226237     4.612719147189251E-4
0.01                      0.01                     -0.137                   0.4845579912284513       -0.485580672827766       4.5592562835869037E-4
0.01                      0.01                     -0.136                   0.5126040778375862       -0.513668030972656       4.499471495456923E-4
0.01                      0.01                     -0.135                   0.5423103626522696       -0.5434181353719397      4.433190222039613E-4
0.01                      0.01                     -0.134                   0.5737758512408531       -0.57493048863713        4.3602451728326876E-4
0.01                      0.01                     -0.133                   0.6071212760963578       -0.6083088214552334      5.149789077605267E-4
0.01                      0.01                     -0.132                   0.6424309811184116       -0.6436668426877865      4.851079995424227E-4
0.01                      0.01                     -0.131                   0.6798357263975913       -0.6811209424302518      4.5614802514029536E-4
0.01                      0.01                     -0.13                    0.7194597151526636       -0.7207953817479164      4.2817040893071233E-4
0.01                      0.01                     -0.129                   0.7614339719079884       -0.7628212419559807      4.0123687572241095E-4
0.01                      0.01                     -0.128                   0.8058965949737696       -0.8073366763652066      3.7539749701187114E-4
0.01                      0.01                     -0.127                   0.8529929945855865       -0.85448714764764        3.5068869601332774E-4
0.01                      0.01                     -0.126                   0.9028761111247708       -0.9044256452534344      3.271312575545508E-4
0.01                      0.01                     -0.125                   0.955706606858978        -0.9573128763294926      3.047283997871189E-4
0.01                      0.01                     -0.124                   1.0116530235335854       -1.0133174224840797      2.8346397647064855E-4
0.01                      0.01                     -0.123                   1.070891896901031        -1.0726158534998642      2.633008909615922E-4
0.01                      0.01                     -0.122                   1.1336078178896556       -1.1353927877139824      2.4417981572057574E-4
0.01                      0.01                     -0.121                   1.1999934285816556       -1.201840887252705       2.2601832353606613E-4
0.01                      0.01                     -0.12                    1.2702493394906371       -1.2721607746295316      2.0871054812199983E-4
0.01                      0.01                     -0.119                   1.344583952807711        -1.346560855393063       1.921275013501583E-4
0.01                      0.01                     -0.118                   1.423213174332881        -1.4252570295565044      1.7611818083501475E-4
0.01                      0.01                     -0.117                   1.506359994747184        -1.5084722724749418      1.605116037303526E-4
0.01                      0.01                     -0.116                   1.594253918744689        -1.5964360636935144      1.451198984371311E-4
0.01                      0.01                     -0.115                   1.6871302183817196       -1.68938364011802        1.2974257363816525E-4
0.01                      0.01                     -0.114                   1.7852289848834026       -1.7875550477292397      1.1417206145277516E-4
0.01                      0.01                     -0.113                   1.8887939511687382       -1.891193964066219       9.820059591625044E-5
0.01                      0.01                     -0.112                   1.998071055638016        -2.0005462619652383      8.16284373923373E-5
0.01                      0.01                     -0.111                   2.113306716468004        -2.115858283717675       6.427338518386529E-5
0.01                      0.01                     -0.11                    2.234745784978242        -2.2373747940983946      4.598143304719003E-5
0.01                      0.01                     -0.109                   2.3626291468060914       -2.3653365808587146      2.6638314306672246E-5
0.01                      0.01                     -0.108                   2.497190940947956        -2.4999776725637526      6.181555400642585E-6
0.01                      0.01                     -0.107                   2.638655369524167        -2.641522146421126       -1.538748887169922E-5
0.01                      0.01                     -0.106                   2.7872330757879857       -2.790180503381559       -3.7992302957118923E-5
0.01                      0.01                     -0.105                   2.9431170748427076       -2.9461455947143738      -6.147142698187075E-5
0.01                      0.01                     -0.104                   3.1064782311965464       -3.109588093918149       -8.55712196636611E-5
0.01                      0.01                     -0.103                   3.2774602901104943       -3.2806515206628304      -1.0994228872711857E-4
0.01                      0.01                     -0.102                   3.4561744860787402       -3.4594468398781837      -1.3414078090517588E-4
0.01                      0.01                     -0.101                   3.6426937720327968       -3.646046679419114       -1.5763571265220205E-4
0.01                      0.01                     -0.1                     3.837046737132627        -3.8404792341059832      -1.798233959988368E-4
0.01                      0.01                     -0.099                   4.0392111372130985       -4.042722099566579       -2.0003907765745542E-4
0.01                      0.01                     -0.098                   4.2491067533536295       -4.252695655383663       -2.1761268573204816E-4
0.01                      0.01                     -0.097                   4.46659245249516         -4.470256715648789       -2.3187667613255156E-4
0.01                      0.01                     -0.096                   4.691456092932327        -4.695192691660131       -2.4223241824817803E-4
0.01                      0.01                     -0.095                   4.923410523063492        -4.927215939097254       -2.481911452949979E-4
0.01                      0.01                     -0.094                   5.162088800962839        -5.16595898123438        -2.494232201422165E-4
0.01                      0.01                     -0.093                   5.407040470965296        -5.410970793476857       -2.45803305313834E-4
0.01                      0.01                     -0.092                   5.657729201856614        -5.66171445425986        -2.3744562722909627E-4
0.01                      0.01                     -0.091                   5.913532091945174        -5.917566467534709       -2.2472286883249099E-4
0.01                      0.01                     -0.09                    6.173740928778177        -6.1778180438856145      -2.0826225951568977E-4
0.01                      0.01                     -0.089                   6.437565652215413        -6.441678587484622       -1.8891346555513792E-4
0.01                      0.01                     -0.088                   6.704140206821378        -6.7082815725368         -1.6768519520366152E-4
0.01                      0.01                     -0.087                   6.972530882705445        -6.976692905361284       -1.4565118674415565E-4
0.01                      0.01                     -0.086                   7.241747135012401        -7.245921758951718       -1.2383140527842174E-4
0.01                      0.01                     -0.085                   7.510754745969675        -7.514933740667814       -1.0306048149322781E-4
0.01                      0.01                     -0.084                   7.778491057291843        -7.782666118324876       -8.38619254641844E-5
0.01                      0.01                     -0.083                   8.043881864894654        -8.048044695495484       -6.635223408386083E-5
0.01                      0.01                     -0.082                   8.305859444071258        -8.31000180503858        -5.020206957299106E-5
0.01                      0.01                     -0.081                   8.56338107383306         -8.56749479281171        -3.4680368065071815E-5
0.01                      0.01                     -0.08                    8.815447365304404        -8.819524302129706       -1.8799771257883602E-5
0.01                      0.01                     -0.079                   9.061119679553196        -9.065151652011927       -1.56693200001931E-6
0.01                      0.01                     -0.078                   9.299535949662454        -9.303514632741743       1.768110810724427E-5
0.01                      0.01                     -0.077                   9.529924299823021        -9.533841119945418       3.8901637941533745E-5
0.01                      0.01                     -0.076                   9.751613975084018        -9.755460027357005       6.101015179129647E-5
0.01                      0.01                     -0.075                   9.964043248650995        -9.967809268193923       8.168935155005054E-5
0.01                      0.01                     -0.074                   10.166764145170886       -10.170440561825439      9.746716504186777E-5
0.01                      0.01                     -0.073                   10.35944399228956        -10.363021090769331      1.041881198154606E-4
0.01                      0.01                     -0.072                   10.541863973009264       -10.545332167915209      9.797903833178212E-5
0.01                      0.01                     -0.071                   10.713914984137338       -10.717265202290106      7.675940808888885E-5
0.01                      0.01                     -0.07                    10.87559120121176        -10.87881534432976       4.2270142704045046E-5
0.01                      0.01                     -0.069                   11.026981802333633       -11.030073243778874      2.498699916184186E-6
0.01                      0.01                     -0.068                   11.168261312296258       -11.171215365295584      -2.572372529722992E-5
0.01                      0.01                     -0.067                   11.299678999439738       -11.302493283630717      -1.4268960352861585E-5
0.01                      0.01                     -0.066                   11.421360548247744       -11.424187412289493      -1.8457488590959635E-5
0.01                      0.01                     -0.065                   11.534087170827316       -11.536760212029437      -1.0152262096502545E-4
0.01                      0.01                     -0.064                   11.63800614157951        -11.640528333858754      -1.51961232151692E-4
0.01                      0.01                     -0.063                   11.73355692070727        -11.735928887096872      -1.880369952513956E-4
0.01                      0.01                     -0.062                   11.82119765893973        -11.823418676446598      -2.2263839143478093E-4
0.01                      0.01                     -0.061                   11.901396877496907       -11.903465840245417      -2.634584896894639E-4
0.01                      0.01                     -0.06                    11.974626096190976       -11.976542376887188      -3.136662948008179E-4
0.01                      0.01                     -0.059                   12.041353467600196       -12.04311763015774       -3.729110086661531E-4
0.01                      0.01                     -0.058                   12.10203843713271        -12.103652766327304      -4.3848158595278527E-4
0.01                      0.01                     -0.057                   12.157127409761378       -12.158596236338479      -5.064525759860389E-4
0.01                      0.01                     -0.056                   12.207050367982504       -12.208380179540084      -5.726786317885108E-4
0.01                      0.01                     -0.055                   12.252218356051849       -12.253417695442703      -6.335461690185029E-4
0.01                      0.01                     -0.054                   12.293021725663515       -12.294100890011824      -6.864419869961782E-4
0.01                      0.01                     -0.053                   12.32982902902181        -12.330799594156908      -7.299462333207755E-4
0.01                      0.01                     -0.052                   12.362986445839317       -12.36386065325354       -7.637939974318629E-4
0.01                      0.01                     -0.051                   12.392817638831344       -12.393607694958947      -7.886721954865088E-4
0.01                      0.01                     -0.05                    12.419623944768661       -12.42034129457894       -8.059256614793812E-4
0.01                      0.01                     -0.049                   12.443684822286398       -12.4443394692008        -8.172406797210526E-4
0.01                      0.01                     -0.048                   12.465258491414618       -12.46585844097369       -8.243595950972656E-4
0.01                      0.01                     -0.047                   12.484582712207615       -12.48513361492212       -8.288612726315538E-4
0.01                      0.01                     -0.046                   12.501875660795255       -12.502380717658435      -8.32023243410172E-4
0.01                      0.01                     -0.045                   12.517336871029201       -12.517797041777326      -8.34765351993592E-4
0.01                      0.01                     -0.044                   12.531148219026626       -12.531562738870011      -8.376630842130911E-4
0.01                      0.01                     -0.043                   12.543474936345937       -12.54384210452059       -8.410116438923119E-4
0.01                      0.01                     -0.042                   12.554466644794497       -12.554784803435094      -8.449185686961493E-4
0.01                      0.01                     -0.041                   12.564258411132187       -12.564526993112924      -8.494023052034311E-4
0.01                      0.01                     -0.04                    12.572971822310043       -12.573192319971197      -8.544760214786757E-4
0.01                      0.01                     -0.039                   12.580716080827566       -12.580892780963982      -8.601997645758762E-4
0.01                      0.01                     -0.038                   12.58758911541519        -12.587729463775041      -8.666898854784188E-4
0.01                      0.01                     -0.037                   12.593678695431059       -12.59379319630452       -8.740823722444391E-4
0.01                      0.01                     -0.036                   12.599063529615746       -12.599165148245302      -8.824557770765679E-4
0.01                      0.01                     -0.035                   12.603814322985539       -12.603917431703037      -8.917285277751892E-4
0.01                      0.01                     -0.034                   12.607994761324704       -12.608113743076295      -9.015527454908968E-4
0.01                      0.01                     -0.033                   12.611662392099921       -12.611810075422225      -9.112303023950478E-4
0.01                      0.01                     -0.032                   12.614874945267033       -12.615056707265095      -9.196542578678125E-4
0.01                      0.01                     -0.031                   12.617678441107085       -12.61789966093571       -9.253663579245809E-4
0.01                      0.01                     -0.03                    12.620113761267266       -12.620372843003922      -9.266970607593965E-4
0.01                      0.01                     -0.029                   12.622221199045349       -12.62251097208207       -9.217950514808298E-4
0.01                      0.01                     -0.028                   12.624037252757624       -12.624345455912502      -9.088961421241369E-4
0.01                      0.01                     -0.027                   12.6255946543721         -12.625905097498627      -8.865310994213764E-4
0.01                      0.01                     -0.026                   12.626922320648944       -12.627216632704116      -8.537108998893752E-4
0.01                      0.01                     -0.025                   12.628045276003174       -12.628305071530587      -8.100597401405912E-4
0.01                      0.01                     -0.024                   12.628984603814283       -12.629193838661976      -7.558751081072261E-4
0.01                      0.01                     -0.023                   12.629757485838379       -12.629904734091864      -6.921066260633468E-4
0.01                      0.01                     -0.022                   12.63037738577918        -12.630457757856776      -6.202583953481916E-4
0.01                      0.01                     -0.021                   12.630854421217544       -12.630870860395856      -5.422305330332224E-4
0.01                      0.01                     -0.02                    12.631195947160792       -12.631159688924752      -4.601226257076385E-4
0.01                      0.01                     -0.019                   12.631407345193013       -12.63133739880209       -3.760242462446839E-4
0.01                      0.01                     -0.018                   12.631492977320065       -12.631414587156598      -2.918159728615235E-4
0.01                      0.01                     -0.017                   12.63145722779803        -12.631399385714607      -2.089998386757344E-4
0.01                      0.01                     -0.016                   12.63130552557693        -12.631297723970365      -1.28572453613018E-4
0.01                      0.01                     -0.015                   12.631045220856885       -12.631113746654933      -5.0948572813337684E-5
0.01                      0.01                     -0.014                   12.630686186970216       -12.630850345143541      2.4061575726193884E-5
0.01                      0.01                     -0.013                   12.630241036358205       -12.630509744651354      9.722127445057874E-5
0.01                      0.01                     -0.012                   12.629724876502138       -12.630094080215622      1.697854566272385E-4
0.01                      0.01                     -0.011                   12.629154584388397       -12.629605895354048      2.4337367486249566E-4
0.01                      0.01                     -0.01                    12.628547639348781       -12.629048507131005      3.198068720809209E-4
0.01                      0.01                     -0.009                   12.627920614761674       -12.628426198064016      4.009206126725087E-4
0.01                      0.01                     -0.008                   12.627287479513686       -12.62774421601034       4.88370792235984E-4
0.01                      0.01                     -0.007                   12.626657892028627       -12.627008584865612      5.834497607801704E-4
0.01                      0.01                     -0.006                   12.626035677753546       -12.626225748934305      6.86930122252502E-4
0.01                      0.01                     -0.005                   12.625417664003836       -12.625402090299907      7.98949515513977E-4
0.01                      0.01                     -0.004                   12.624793007156724       -12.62454337046105       9.189425707686813E-4
0.01                      0.01                     -0.003                   12.624143093315908       -12.623654154809401      0.0010456170759134088
0.01                      0.01                     -0.002                   12.62344203411301        -12.622737281708064      0.0011769620950515007
0.01                      0.01                     -0.001                   12.62265772401439        -12.621793437660868      0.0013102686389200853
0.01                      0.01                     0                        12.621753382301145       -12.620820896693871      0.0014421405425944051
0.01                      0.01                     0.001                    12.620630635514491       -12.619900292215165      0.001649402159482575
0.01                      0.01                     0.002                    12.620406574674158       -12.61929140684324       0.0016797946658217756
0.01                      0.01                     0.003                    12.619980642713038       -12.618495044915846      0.0017274610401257495
0.01                      0.01                     0.004                    12.619407761364695       -12.617559654093267      0.0017883511447853344
0.01                      0.01                     0.005                    12.618739531546712       -12.616531055534198      0.0018589173145622333
0.01                      0.01                     0.006                    12.618022280143686       -12.615451273498802      0.001936108915175981
0.01                      0.01                     0.007                    12.617295250930086       -12.614357211516928      0.0020172603856337527
0.01                      0.01                     0.008                    12.616589135866093       -12.613279336002131      0.002099898763090971
0.01                      0.01                     0.009                    12.615925128478619       -12.612240553278244      0.0021815152054840024
0.01                      0.01                     0.01                     12.615314634720761       -12.61125545809376       0.002259355359673632
0.01                      0.01                     0.011                    12.614759704120004       -12.610330092290432      0.002330282540915478
0.01                      0.01                     0.012                    12.614254155395141       -12.6094622880367        0.0023907550165104116
0.01                      0.01                     0.013                    12.613785279424176       -12.608642591574219      0.0024369364600756505
0.01                      0.01                     0.014                    12.613335922998836       -12.60785568357149       0.0024649315104790666
0.01                      0.01                     0.015                    12.612886702549462       -12.607082143796887      0.002471112283015854
0.01                      0.01                     0.016                    12.612418077816976       -12.606300361705866      0.0024524823868617486
0.01                      0.01                     0.017                    12.611912035725373       -12.6054883776036        0.0024070165783959927
0.01                      0.01                     0.018                    12.611353192345865       -12.604625453201809      0.0023339180432967667
0.01                      0.01                     0.019                    12.610729207163187       -12.603693212283352      0.002233749994463131
0.01                      0.01                     0.02                     12.610030504894661       -12.602676253947536      0.002108420045285556
0.01                      0.01                     0.021                    12.609249399068316       -12.601562211727995      0.0019610197692976326
0.01                      0.01                     0.022                    12.60837879191756        -12.600341300146017      0.001795543267364778
0.01                      0.01                     0.023                    12.607410673835872       -12.59900544575146       0.0016165239749784735
0.01                      0.01                     0.024                    12.606334655537829       -12.5975471353227        0.001428636717776635
0.01                      0.01                     0.025                    12.60513673725764        -12.595958126694649      0.0012363123031596509
0.01                      0.01                     0.026                    12.603798458761021       -12.594228158896016      0.0010434061331930427
0.01                      0.01                     0.027                    12.602296493910096       -12.592343772554312      8.529524290490199E-4
0.01                      0.01                     0.028                    12.600602668951456       -12.590287315595335      6.670236252246229E-4
0.01                      0.01                     0.029                    12.598684309333201       -12.58803617038054       4.867018926678403E-4
0.01                      0.01                     0.03                     12.596504767586826       -12.585562203011905      3.121577052098306E-4
0.01                      0.01                     0.031                    12.59402396179609        -12.582831408158142      1.4281967970862551E-4
0.01                      0.01                     0.032                    12.591198761967284       -12.579803705645547      -2.2388741977693888E-5
0.01                      0.01                     0.033                    12.58798309630639        -12.576432838077366      -1.8477623359201216E-4
0.01                      0.01                     0.034                    12.584327702727679       -12.572666319819891      -3.456074895485032E-4
0.01                      0.01                     0.035                    12.58018156820144        -12.568447093060895      -5.059412574954535E-4
0.01                      0.01                     0.036                    12.575488027525997       -12.563712536440548      -6.662459009626411E-4
0.01                      0.01                     0.037                    12.570181269930114       -12.558386985034408      -8.264294353918035E-4
0.01                      0.01                     0.038                    12.564190808382369       -12.55239299483615       -9.85809893914967E-4
0.01                      0.01                     0.039                    12.55743758696812        -12.545646002015674      -0.001143176137591954
0.01                      0.01                     0.04                     12.5498327244331         -12.53805382300206       -0.0012969397246973583
0.01                      0.01                     0.041                    12.541276401687554       -12.52951597051476       -0.0014453428304543627
0.01                      0.01                     0.042                    12.531656915299717       -12.519922758756463      -0.0015866906200264518
0.01                      0.01                     0.043                    12.520849880135565       -12.509154182750759      -0.0017195718274152613
0.01                      0.01                     0.044                    12.508717533540269       -12.497078575333857      -0.0018430318511606088
0.01                      0.01                     0.045                    12.495108075259346       -12.483551068565786      -0.0019566690361855175
0.01                      0.01                     0.046                    12.479854973328036       -12.46841191066552       -0.002060636536555887
0.01                      0.01                     0.047                    12.462776175561924       -12.451484710687772      -0.0021555476221236775
0.01                      0.01                     0.048                    12.44367318645037        -12.432574697252207      -0.002242298849680109
0.01                      0.01                     0.049                    12.422329996740665       -12.411467082443783      -0.002321839997251174
0.01                      0.01                     0.05                     12.39851188434087        -12.387925617329758      -0.002394929113105035
0.01                      0.01                     0.051                    12.371964137364309       -12.361691413205275      -0.002461913482002726
0.01                      0.01                     0.052                    12.34241078077804        -12.332482085920464      -0.002522572259242615
0.01                      0.01                     0.053                    12.309553415197604       -12.299991263231654      -0.002576045057394415
0.01                      0.01                     0.054                    12.273070298002          -12.263888480481851      -0.0026208552708004117
0.01                      0.01                     0.055                    12.232615811130495       -12.223819480507709      -0.002655020465498129
0.01                      0.01                     0.056                    12.187820464585878       -12.179406930726682      -0.002676227826602185
0.01                      0.01                     0.057                    12.138291577959697       -12.130251573989552      -0.002682042921480373
0.01                      0.01                     0.058                    12.083614763174259       -12.075933839264435      -0.0026701163922169145
0.01                      0.01                     0.059                    12.023356300537081       -12.016015952289338      -0.0026383559727317873
0.01                      0.01                     0.06                     11.957066459552683       -11.950044603368905      -0.002585039667995984
0.01                      0.01                     0.061                    11.884283770279817       -11.87755424750475       -0.002508858348219089
0.01                      0.01                     0.062                    11.804540206567138       -11.79807112853704       -0.0024088900807864464
0.01                      0.01                     0.063                    11.71736720602684        -11.711118130795366      -0.0022845216604375253
0.01                      0.01                     0.064                    11.622302428901495       -11.616220565117876      -0.0021353425858629347
0.01                      0.01                     0.065                    11.518897152132496       -11.512912986824874      -0.0019610413676259242
0.01                      0.01                     0.066                    11.40672420498255        -11.400747117286894      -0.001761332736989508
0.01                      0.01                     0.067                    11.28538637293533        -11.279300894998592      -0.0015359374577114948
0.01                      0.01                     0.068                    11.154701010517066       -11.14859702962297       -0.0014115353186775
0.01                      0.01                     0.069                    11.013853700155522       -11.008003706145608      -0.001267243122439887
0.01                      0.01                     0.07                     10.862991991779692       -10.857283133341507      -0.00114155409817765
0.01                      0.01                     0.071111                 10.683380161172906       -10.677751519482515      -0.0010151543969345415
0.01                      0.01                     0.072222                 10.490983909553892       -10.485399091542345      -8.96372373159829E-4
0.01                      0.01                     0.073333                 10.285807198016629       -10.280259388438918      -7.815791433009636E-4
0.01                      0.01                     0.074444                 10.068026392531312       -10.06252456794374       -6.695401153651364E-4
0.01                      0.01                     0.075556                 9.837784354033577        -9.832343112943844       -5.605815184440201E-4
0.01                      0.01                     0.076667                 9.596031718067765        -9.590664516675698       -4.5623693631602726E-4
0.01                      0.01                     0.077778                 9.343280768470658        -9.337996705994348       -3.580134074772062E-4
0.01                      0.01                     0.078889                 9.08041484026499         -9.075217727380007       -2.67307256626354E-4
0.01                      0.01                     0.08                     8.8084732892833          -8.803362400569439       -1.8501161624441347E-4
0.01                      0.01                     0.081                    8.556911064017312        -8.551874688818051       -1.1836856464427262E-4
0.01                      0.01                     0.082                    8.299886790349799        -8.294921012836781       -5.8550831130073225E-5
0.01                      0.01                     0.083                    8.038398792479152        -8.033499812283765       -5.0174467900823444E-6
0.01                      0.01                     0.084                    7.773487977490523        -7.768652864090507       4.299866428360792E-5
0.01                      0.01                     0.085                    7.506219850345189        -7.501446974720282       8.638549335467999E-5
0.01                      0.01                     0.086                    7.237666314227292        -7.232955475424464       1.2605436027237894E-4
0.01                      0.01                     0.087                    6.9688879101154155       -6.964240214801956       1.6286005256055088E-4
0.01                      0.01                     0.088                    6.700917106985724        -6.696334678829578       1.9754375905946912E-4
0.01                      0.01                     0.089                    6.434743171833699        -6.4302287692693705      2.3069965539568467E-4
0.01                      0.01                     0.09                     6.171299036912495        -6.16685564806781        2.6276292796642667E-4
0.01                      0.01                     0.091                    5.911450452564572        -5.9070809201237795      2.940151404389166E-4
0.01                      0.01                     0.092                    5.655987580345875        -5.651694291221142       3.246020219594446E-4
0.01                      0.01                     0.093                    5.405619054021495        -5.401403711949616       3.545587599338072E-4
0.01                      0.01                     0.094                    5.160968424223158        -5.156831909596483       3.8383844961704656E-4
0.01                      0.01                     0.095                    4.922572811903825        -4.918515123037178       4.1234023965078937E-4
0.01                      0.01                     0.096                    4.690883529014854        -4.686903792636719       4.399347114524176E-4
0.01                      0.01                     0.097                    4.466268382245891        -4.462364917801834       4.664849907793262E-4
0.01                      0.01                     0.098                    4.249015355338773        -4.245185777000766       4.918629163816967E-4
0.01                      0.01                     0.099                    4.039337364177023        -4.035578705507963       5.159602359776072E-4
0.01                      0.01                     0.1                      3.8373777925994896       -3.8336866409399435      5.386952531362166E-4
0.01                      0.01                     0.101                    3.643216541553709        -3.6395891718164175      5.600156244221161E-4
0.01                      0.01                     0.102                    3.4568774197100667       -3.4533091820737027      5.799345709304866E-4
0.01                      0.01                     0.103                    3.278331692067573        -3.274818451252543       5.984349000326835E-4
0.01                      0.01                     0.104                    3.1075069826896837       -3.1040445034934003      6.155416493720282E-4
0.01                      0.01                     0.105                    2.9442925183838744       -2.940876697084829       6.313019380183799E-4
0.01                      0.01                     0.106                    2.7885449792481247       -2.7851718920501445      6.457759089245308E-4
0.01                      0.01                     0.107                    2.6400939015715412       -2.6367598414367723      6.590321910422617E-4
0.01                      0.01                     0.108                    2.498746655836406        -2.4954481582716603      6.711438138803243E-4
0.01                      0.01                     0.109                    2.3642929763489993       -2.361026835203176       6.821847334564685E-4
0.01                      0.01                     0.11                     2.2365090356178516       -2.233272310221702       6.92227040684475E-4
0.01                      0.01                     0.111                    2.115161069558206        -2.11195108464593        7.013388566575131E-4
0.01                      0.01                     0.112                    2.000008569342412        -1.9968229091852578      7.095828723510482E-4
0.01                      0.01                     0.113                    1.890807062689658        -1.8876435607839956      7.170154604364193E-4
0.01                      0.01                     0.114                    1.7873105120484634       -1.7841672375659618      7.236862708263392E-4
0.01                      0.01                     0.115                    1.6892733599019167       -1.6861486019506737      7.296382162197506E-4
0.01                      0.01                     0.116                    1.5964522527087093       -1.593344503288441       7.34907756138296E-4
0.01                      0.01                     0.117                    1.5086074751256997       -1.5055154114990148      7.395253953121743E-4
0.01                      0.01                     0.118                    1.4255041254327105       -1.4224265924852244      7.435163226200492E-4
0.01                      0.01                     0.119                    1.3469130617417249       -1.3438490547705555      7.469011285563096E-4
0.01                      0.01                     0.12                     1.2726116468193451       -1.2695602950740867      7.496965510683104E-4
0.01                      0.01                     0.121                    1.202384317341748        -1.1993448685446695      7.5191621109983E-4
0.01                      0.01                     0.122                    1.1360230012589974       -1.1329948072508924      7.535713093008004E-4
0.01                      0.01                     0.123                    1.0733274047640213       -1.070309908357616       7.546712642995885E-4
0.01                      0.01                     0.124                    1.0141051882100898       -1.0110979112821603      7.552242803921679E-4
0.01                      0.01                     0.125                    0.9581720482485012       -0.9551745810630655      7.552378384504141E-4
0.01                      0.01                     0.126                    0.9053517214986029       -0.9023637132248568      7.547191084939415E-4
0.01                      0.01                     0.127                    0.8554759232361426       -0.8524970736043392      7.536752859222395E-4
0.01                      0.01                     0.128                    0.8083842329044683       -0.8054142849292704      7.521138557935979E-4
0.01                      0.01                     0.129                    0.7639239367204894       -0.7609626704129117      7.500427912121073E-4
0.01                      0.01                     0.13                     0.7219498362622412       -0.7189970632470735      7.474706928311784E-4
0.01                      0.01                     0.131                    0.682324030682759        -0.6793795896372841      7.444068769130939E-4
0.01                      0.01                     0.132                    0.6449156790882269       -0.6419794319192869      7.408614194236589E-4
0.01                      0.01                     0.133                    0.6096007486382438       -0.606672577317629       7.368451633926401E-4
0.01                      0.01                     0.134                    0.5762617530627148       -0.573341557044946       7.323696963288535E-4
0.01                      0.01                     0.135                    0.5447874855333146       -0.5418751796846555      7.274473039306572E-4
0.01                      0.01                     0.136                    0.5150680586326911       -0.5121637976994883      7.158631058392519E-4
0.01                      0.01                     0.137                    0.4870212234723331       -0.48411673356311297     7.095194827317202E-4
0.01                      0.01                     0.138                    0.4605396998097315       -0.45763525791592496     7.029075557779941E-4
0.01                      0.01                     0.139                    0.4355351748703681       -0.43263092645825635     6.960405194450267E-4
0.01                      0.01                     0.14                     0.4119241943650146       -0.40902017632954457     6.889293523233564E-4
0.01                      0.01                     0.141                    0.3896279308125389       -0.3867240923627312      6.815832707431837E-4
0.01                      0.01                     0.142                    0.3685719562796334       -0.36566817773540883     6.740100893727363E-4
0.01                      0.01                     0.143                    0.3486860207420047       -0.34578213027590754     6.662165073717546E-4
0.01                      0.01                     0.144                    0.329903836982006        -0.3269996253799872      6.582083353500015E-4
0.01                      0.01                     0.145                    0.31216287269614257      -0.3092581062412691      6.499906755650286E-4
0.01                      0.01                     0.146                    0.29540415028534206      -0.29249858188873656     6.415680654330046E-4
0.01                      0.01                     0.147                    0.2795720546353511       -0.27666543335151156     6.329445924719784E-4
0.01                      0.01                     0.148                    0.2646141490589104       -0.261706228129157       6.241239871514616E-4
0.01                      0.01                     0.149                    0.2504809994608516       -0.24757154303035173     6.151096987984483E-4
0.01                      0.01                     0.15                     0.23712600669815329      -0.2342147953497566      6.059049586035941E-4
0.01                      0.01                     0.151                    0.22450524703584918      -0.22159208227888033     5.965128328814847E-4
0.01                      0.01                     0.152                    0.2125773205436982       -0.20966202838855885     5.86936269020516E-4
0.01                      0.01                     0.153                    0.20130320723515657      -0.19838564097586614     5.771781359813408E-4
0.01                      0.01                     0.154                    0.19064613071743364      -0.1877261730345245      5.672412607325629E-4
0.01                      0.01                     0.155                    0.18057142909738616      -0.17764899358337352     5.571284616739321E-4
0.01                      0.01                     0.156                    0.1710464328712573       -0.1681214650705477      5.468425797775678E-4
0.01                      0.01                     0.157                    0.16204034951545984      -0.15911282756031533     5.363865079930928E-4
0.01                      0.01                     0.158                    0.1535241544896964       -0.15059408940395827     5.2576321926355E-4
0.01                      0.01                     0.159                    0.14547048836170995      -0.1425379240945645      5.149757933852978E-4
0.01                      0.01                     0.16                     0.13785355976419356      -0.13491857300740462     5.040274428415548E-4
0.01                      0.01                     0.161                    0.13064905389807632      -0.1277117537319517      4.929215376612383E-4
0.01                      0.01                     0.162                    0.12383404630215838      -0.12089457370802384     4.816616293090943E-4
0.01                      0.01                     0.163                    0.11738692161624732      -0.11444544888646721     4.702514735586204E-4
0.01                      0.01                     0.164                    0.11128729707336311      -0.10834402714390709     4.586950522826042E-4
0.01                      0.01                     0.165                    0.10551595046577551      -0.10257111619100646     4.4699659406826573E-4
0.01                      0.01                     0.166                    0.1000547523394058       -0.09710861572411382     4.3516059354424503E-4
0.01                      0.01                     0.167                    0.09488660218129098      -0.09193945358099337     4.231918293046869E-4
0.01                      0.01                     0.168                    0.0899953683751171       -0.08704752567224187     4.110953803011833E-4
0.01                      0.01                     0.169                    0.0853658317102241       -0.08241763947093916     3.9887664057227236E-4
0.01                      0.01                     0.17                     0.08098363223978154      -0.07803546085391917     3.8654133217886873E-4
0.01                      0.01                     0.171                    0.07683521929401993      -0.07388746409866286     3.7409551621065367E-4
0.01                      0.01                     0.172                    0.07290780446432663      -0.06996088485019644     3.615456017384929E-4
0.01                      0.01                     0.173                    0.06918931738369655      -0.06624367588241331     3.4889835258418656E-4
0.01                      0.01                     0.174                    0.06566836413837829      -0.06272446548794393     3.3616089179162227E-4
0.01                      0.01                     0.175                    0.06233418815458829      -0.05939251834000211     3.2334070369538417E-4
0.01                      0.01                     0.176                    0.05917663341280714      -0.05623769867856037     3.104456334798789E-4
0.01                      0.01                     0.177                    0.056186109850484466     -0.05325043568171273     2.974838841600506E-4
0.01                      0.01                     0.178                    0.05335356082187788      -0.0504216908911897      2.8446401090494156E-4
0.01                      0.01                     0.179                    0.05067043249131483      -0.04774292756869305     2.7139491266284406E-4
0.01                      0.01                     0.18                     0.048128645043320074     -0.04520608186700382     2.582858210524314E-4
0.01                      0.01                     0.181                    0.045720565599883585     -0.04280353570674269     2.4514628652147697E-4
0.01                      0.01                     0.182                    0.04343898274158522      -0.040528091256174875    2.3198616177666856E-4
0.01                      0.01                     0.183                    0.04127708253541951      -0.03837294691762964     2.1881558253757338E-4
0.01                      0.01                     0.184                    0.039228425977942176     -0.03633167472991278     2.0564494566718114E-4
0.01                      0.01                     0.185                    0.03728692776782955      -0.034398199101557725    1.9248488478092044E-4
0.01                      0.01                     0.186                    0.03544683632711146      -0.032566776794936136    1.7934624344077832E-4
0.01                      0.01                     0.187                    0.03370271499520208      -0.03083197808608068     1.6624004608043196E-4
0.01                      0.01                     0.188                    0.03204942432445981      -0.02918866902964248     1.5317746683179376E-4
0.01                      0.01                     0.189                    0.030482105410338012     -0.027631994762690768    1.4016979643158013E-4
0.01                      0.01                     0.19                     0.02899616419327267      -0.02615736378508488     1.2722840743199803E-4
0.01                      0.01                     0.191                    0.027587256673304344     -0.024760433157935444    1.1436471793916392E-4
0.01                      0.01                     0.192                    0.026251274982052625     -0.023437094565217455    1.0159015413241645E-4
0.01                      0.01                     0.193                    0.024984334260075867     -0.022183461186933075    8.891611183311029E-5
0.01                      0.01                     0.194                    0.023782760290853234     -0.020995855335349832    7.635391739278583E-5
0.01                      0.01                     0.195                    0.02264307784565711      -0.019870796808774575    6.391478819873313E-5
0.01                      0.01                     0.196                    0.021561999696408724     -0.018804991920084415    5.1609793083841194E-5
0.01                      0.01                     0.197                    0.020536416256293943     -0.017795323159811024    3.944981294275053E-5
0.01                      0.01                     0.198                    0.01956338581041395      -0.016838839456014772    2.744550184903831E-5
0.01                      0.01                     0.199                    0.01864012530110808      -0.01593274699545424     1.560724896916423E-5
